[{"id":1,"fecha":"2017-05-03","importe":92.05,"latitud":12.6226118,"longitud":9.3839598},
{"id":2,"fecha":"2017-03-05","importe":64.08,"latitud":-8.3501717,"longitud":117.9483319},
{"id":3,"fecha":"2017-10-24","importe":75.13,"latitud":38.5642115,"longitud":-9.0940605},
{"id":4,"fecha":"2017-12-12","importe":24.62,"latitud":24.4623104,"longitud":118.0801092},
{"id":5,"fecha":"2017-05-23","importe":93.05,"latitud":56.947079,"longitud":23.6168485},
{"id":6,"fecha":"2017-01-09","importe":49.69,"latitud":9.2894242,"longitud":12.2416715},
{"id":7,"fecha":"2017-12-12","importe":72.83,"latitud":22.424398,"longitud":-79.9416549},
{"id":8,"fecha":"2017-07-08","importe":23.9,"latitud":22.0462137,"longitud":111.012675},
{"id":9,"fecha":"2017-11-05","importe":47.67,"latitud":23.018033,"longitud":-82.3343375},
{"id":10,"fecha":"2017-01-18","importe":10.7,"latitud":15.868716,"longitud":120.3920116},
{"id":11,"fecha":"2017-02-06","importe":16.95,"latitud":11.9313228,"longitud":7.413802},
{"id":12,"fecha":"2017-03-15","importe":59.53,"latitud":48.878715,"longitud":17.2335614},
{"id":13,"fecha":"2017-06-02","importe":76.42,"latitud":37.198731,"longitud":106.1580937},
{"id":14,"fecha":"2017-06-17","importe":49.78,"latitud":46.3043619,"longitud":38.9758429},
{"id":15,"fecha":"2017-09-17","importe":37.59,"latitud":-7.0448624,"longitud":111.9075351},
{"id":16,"fecha":"2017-04-06","importe":20.21,"latitud":30.7446878,"longitud":120.4910168},
{"id":17,"fecha":"2017-03-22","importe":7.38,"latitud":42.9600774,"longitud":19.5835874},
{"id":18,"fecha":"2017-11-29","importe":78.65,"latitud":7.4700493,"longitud":124.3789673},
{"id":19,"fecha":"2017-01-11","importe":66.28,"latitud":47.3410322,"longitud":1.1586866},
{"id":20,"fecha":"2017-11-18","importe":72.13,"latitud":21.547821,"longitud":107.971826},
{"id":21,"fecha":"2017-09-25","importe":59.7,"latitud":6.703272,"longitud":8.8997015},
{"id":22,"fecha":"2017-07-09","importe":7.67,"latitud":24.3154419,"longitud":109.3656914},
{"id":23,"fecha":"2017-11-02","importe":79.65,"latitud":36.7284026,"longitud":53.8101659},
{"id":24,"fecha":"2017-11-30","importe":26.92,"latitud":44.9993113,"longitud":19.9820405},
{"id":25,"fecha":"2017-07-23","importe":97.43,"latitud":"30.9128","longitud":"30.29018"},
{"id":26,"fecha":"2017-01-30","importe":86.5,"latitud":4.243113,"longitud":117.893335},
{"id":27,"fecha":"2017-06-06","importe":30.7,"latitud":-20.495949,"longitud":57.5497376},
{"id":28,"fecha":"2017-09-16","importe":7.17,"latitud":13.4730203,"longitud":120.9720855},
{"id":29,"fecha":"2017-03-06","importe":99.22,"latitud":"13.78024","longitud":"43.86901"},
{"id":30,"fecha":"2017-04-13","importe":69.98,"latitud":48.4089744,"longitud":135.123385},
{"id":31,"fecha":"2018-01-01","importe":50.57,"latitud":39.562646,"longitud":113.369956},
{"id":32,"fecha":"2017-03-30","importe":71.59,"latitud":55.7711328,"longitud":39.1006189},
{"id":33,"fecha":"2017-01-06","importe":63.08,"latitud":32.6521604,"longitud":130.675613},
{"id":34,"fecha":"2017-03-03","importe":56.19,"latitud":9.338682,"longitud":123.291063},
{"id":35,"fecha":"2017-12-16","importe":43.68,"latitud":35.2188655,"longitud":-80.8108888},
{"id":36,"fecha":"2017-12-20","importe":64.24,"latitud":40.7468254,"longitud":19.494331},
{"id":37,"fecha":"2017-04-12","importe":63.24,"latitud":42.9203458,"longitud":21.7421911},
{"id":38,"fecha":"2017-06-06","importe":22.31,"latitud":41.5678915,"longitud":-8.4219601},
{"id":39,"fecha":"2017-12-04","importe":28.03,"latitud":-8.3351552,"longitud":122.9768634},
{"id":40,"fecha":"2017-05-29","importe":79.54,"latitud":61.4559668,"longitud":23.7382315},
{"id":41,"fecha":"2017-11-17","importe":95.28,"latitud":37.6118995,"longitud":-0.9904322},
{"id":42,"fecha":"2017-12-11","importe":50.75,"latitud":51.8186111,"longitud":15.7056221},
{"id":43,"fecha":"2017-09-11","importe":86.18,"latitud":-11.0897577,"longitud":-43.1390524},
{"id":44,"fecha":"2017-10-10","importe":98.1,"latitud":8.5703071,"longitud":150.4189148},
{"id":45,"fecha":"2017-09-12","importe":6.56,"latitud":43.3156727,"longitud":-0.4289432},
{"id":46,"fecha":"2017-05-23","importe":31.09,"latitud":"32.99941","longitud":"35.81084"},
{"id":47,"fecha":"2017-01-25","importe":96.92,"latitud":"42.10667","longitud":"21.10889"},
{"id":48,"fecha":"2017-10-19","importe":37.28,"latitud":59.3536649,"longitud":18.1354296},
{"id":49,"fecha":"2017-08-07","importe":98.89,"latitud":58.1531344,"longitud":8.079923},
{"id":50,"fecha":"2017-04-11","importe":87.47,"latitud":57.7197857,"longitud":12.933356},
{"id":51,"fecha":"2017-03-18","importe":40.9,"latitud":28.4630493,"longitud":-81.460856},
{"id":52,"fecha":"2017-01-20","importe":34.56,"latitud":36.1180248,"longitud":137.9533657},
{"id":53,"fecha":"2017-12-10","importe":95.03,"latitud":52.9152117,"longitud":23.4961724},
{"id":54,"fecha":"2017-09-05","importe":50.78,"latitud":-6.995577,"longitud":112.9862557},
{"id":55,"fecha":"2017-11-22","importe":50.53,"latitud":44.7783548,"longitud":19.5985451},
{"id":56,"fecha":"2017-01-28","importe":60.77,"latitud":27.358123,"longitud":110.514837},
{"id":57,"fecha":"2017-10-15","importe":83.17,"latitud":41.1245616,"longitud":-7.9287227},
{"id":58,"fecha":"2017-11-12","importe":67.61,"latitud":"37.90889","longitud":"126.16111"},
{"id":59,"fecha":"2017-03-31","importe":35.38,"latitud":16.1131855,"longitud":103.9056032},
{"id":60,"fecha":"2017-01-06","importe":85.88,"latitud":32.724185,"longitud":120.133762},
{"id":61,"fecha":"2017-11-23","importe":52.12,"latitud":-8.8814738,"longitud":117.3733989},
{"id":62,"fecha":"2017-10-22","importe":12.38,"latitud":49.4067724,"longitud":14.8112191},
{"id":63,"fecha":"2017-03-19","importe":23.75,"latitud":43.2916776,"longitud":-0.3696612},
{"id":64,"fecha":"2017-09-29","importe":60.39,"latitud":20.6523028,"longitud":-87.0696273},
{"id":65,"fecha":"2017-08-15","importe":62.77,"latitud":-9.5623345,"longitud":119.2930875},
{"id":66,"fecha":"2017-10-05","importe":1.84,"latitud":"-8.2791","longitud":"112.9733"},
{"id":67,"fecha":"2017-04-07","importe":87.12,"latitud":58.9747897,"longitud":5.6952439},
{"id":68,"fecha":"2017-11-17","importe":67.16,"latitud":62.2956257,"longitud":28.2513674},
{"id":69,"fecha":"2017-10-02","importe":18.95,"latitud":6.7987866,"longitud":124.6192703},
{"id":70,"fecha":"2017-10-01","importe":69.95,"latitud":22.198745,"longitud":113.543873},
{"id":71,"fecha":"2017-11-04","importe":74.55,"latitud":18.4770791,"longitud":-69.9732934},
{"id":72,"fecha":"2017-11-09","importe":27.3,"latitud":53.9867,"longitud":20.39746},
{"id":73,"fecha":"2017-07-07","importe":63.91,"latitud":27.5277132,"longitud":57.8651371},
{"id":74,"fecha":"2017-05-05","importe":85.23,"latitud":51.149402,"longitud":34.3175225},
{"id":75,"fecha":"2017-08-29","importe":4.86,"latitud":43.6953508,"longitud":7.2559678},
{"id":76,"fecha":"2017-12-14","importe":23.29,"latitud":-12.0271668,"longitud":-75.3743736},
{"id":77,"fecha":"2017-11-16","importe":72.1,"latitud":29.528923,"longitud":104.990101},
{"id":78,"fecha":"2017-11-15","importe":36.47,"latitud":-8.2046795,"longitud":111.9969626},
{"id":79,"fecha":"2017-02-13","importe":64.09,"latitud":17.0437082,"longitud":95.6431662},
{"id":80,"fecha":"2017-11-09","importe":68.87,"latitud":51.9817834,"longitud":17.0627666},
{"id":81,"fecha":"2017-08-29","importe":37.77,"latitud":14.2233899,"longitud":-90.4751359},
{"id":82,"fecha":"2017-04-22","importe":77.21,"latitud":49.059828,"longitud":6.154795},
{"id":83,"fecha":"2017-03-03","importe":73.75,"latitud":26.1656051,"longitud":50.5523828},
{"id":84,"fecha":"2017-09-11","importe":71.68,"latitud":43.3057431,"longitud":-1.9802013},
{"id":85,"fecha":"2017-11-11","importe":65.37,"latitud":-7.3348063,"longitud":110.5102808},
{"id":86,"fecha":"2017-07-16","importe":85.55,"latitud":-7.1056569,"longitud":107.9005972},
{"id":87,"fecha":"2017-04-13","importe":25.79,"latitud":29.2132568,"longitud":52.6867529},
{"id":88,"fecha":"2017-01-22","importe":31.36,"latitud":38.5023428,"longitud":125.7516069},
{"id":89,"fecha":"2017-10-23","importe":98.95,"latitud":22.279062,"longitud":114.174463},
{"id":90,"fecha":"2017-05-01","importe":51.92,"latitud":22.569804,"longitud":113.869235},
{"id":91,"fecha":"2017-02-22","importe":36.32,"latitud":-16.4443537,"longitud":-39.0653656},
{"id":92,"fecha":"2017-02-12","importe":2.47,"latitud":8.1087597,"longitud":-11.8478324},
{"id":93,"fecha":"2017-01-24","importe":97.2,"latitud":59.9420078,"longitud":30.2307225},
{"id":94,"fecha":"2017-04-17","importe":44.7,"latitud":24.8697215,"longitud":89.3700108},
{"id":95,"fecha":"2017-02-11","importe":2.93,"latitud":40.105193,"longitud":124.3602631},
{"id":96,"fecha":"2017-11-04","importe":35.03,"latitud":37.943121,"longitud":115.217658},
{"id":97,"fecha":"2017-09-28","importe":97.07,"latitud":"40.24739","longitud":"44.53511"},
{"id":98,"fecha":"2017-12-23","importe":14.73,"latitud":18.714928,"longitud":110.401814},
{"id":99,"fecha":"2017-09-21","importe":64.58,"latitud":5.8520355,"longitud":-55.2038278},
{"id":100,"fecha":"2017-11-27","importe":20.88,"latitud":42.8746212,"longitud":74.5697617},
{"id":101,"fecha":"2017-01-08","importe":36.15,"latitud":22.928305,"longitud":113.207187},
{"id":102,"fecha":"2017-09-12","importe":26.35,"latitud":38.2537363,"longitud":48.2999901},
{"id":103,"fecha":"2017-05-09","importe":85.8,"latitud":28.01082,"longitud":120.663064},
{"id":104,"fecha":"2017-06-07","importe":16.5,"latitud":"34.55132","longitud":"65.79302"},
{"id":105,"fecha":"2017-11-12","importe":84.63,"latitud":4.968157,"longitud":-73.490098},
{"id":106,"fecha":"2017-07-29","importe":56.72,"latitud":45.2384571,"longitud":-0.8106708},
{"id":107,"fecha":"2017-08-18","importe":38.42,"latitud":6.4876142,"longitud":-6.5836774},
{"id":108,"fecha":"2017-11-17","importe":52.09,"latitud":-10.5224941,"longitud":-36.6525696},
{"id":109,"fecha":"2017-08-30","importe":85.78,"latitud":56.3690033,"longitud":38.5829669},
{"id":110,"fecha":"2017-03-11","importe":22.3,"latitud":-7.3684588,"longitud":107.4967147},
{"id":111,"fecha":"2017-06-22","importe":42.73,"latitud":6.7703871,"longitud":8.9935558},
{"id":112,"fecha":"2017-08-20","importe":46.1,"latitud":26.405715,"longitud":106.256412},
{"id":113,"fecha":"2017-06-16","importe":80.02,"latitud":-0.2983944,"longitud":73.4268608},
{"id":114,"fecha":"2017-06-02","importe":68.17,"latitud":25.8812265,"longitud":-97.5199862},
{"id":115,"fecha":"2017-03-03","importe":63.55,"latitud":57.2490334,"longitud":16.4322461},
{"id":116,"fecha":"2017-07-28","importe":38.15,"latitud":51.7300614,"longitud":21.9829204},
{"id":117,"fecha":"2017-12-15","importe":35.29,"latitud":45.8309803,"longitud":94.80205},
{"id":118,"fecha":"2017-07-01","importe":10.31,"latitud":9.7016493,"longitud":-84.1005807},
{"id":119,"fecha":"2017-09-22","importe":56.79,"latitud":37.953529,"longitud":114.816881},
{"id":120,"fecha":"2017-04-26","importe":6.97,"latitud":-4.2633597,"longitud":15.2428853},
{"id":121,"fecha":"2017-03-13","importe":85.69,"latitud":45.7198309,"longitud":15.909036},
{"id":122,"fecha":"2017-03-25","importe":80.05,"latitud":48.2211075,"longitud":26.2712988},
{"id":123,"fecha":"2017-02-05","importe":40.84,"latitud":47.660528,"longitud":33.7205403},
{"id":124,"fecha":"2017-05-11","importe":12.7,"latitud":30.798325,"longitud":107.96879},
{"id":125,"fecha":"2017-02-09","importe":6.43,"latitud":-18.9105687,"longitud":47.8081645},
{"id":126,"fecha":"2017-03-17","importe":8.2,"latitud":20.5599652,"longitud":-76.9095647},
{"id":127,"fecha":"2017-03-30","importe":67.2,"latitud":43.7755615,"longitud":23.7246154},
{"id":128,"fecha":"2017-09-21","importe":65.74,"latitud":46.718237,"longitud":16.0197222},
{"id":129,"fecha":"2017-02-16","importe":26.33,"latitud":34.9563216,"longitud":33.4271403},
{"id":130,"fecha":"2017-11-04","importe":37.32,"latitud":-7.6331351,"longitud":109.2474701},
{"id":131,"fecha":"2017-11-13","importe":82.55,"latitud":-7.0368878,"longitud":108.3489807},
{"id":132,"fecha":"2017-08-15","importe":55.4,"latitud":54.79074,"longitud":18.403},
{"id":133,"fecha":"2017-08-12","importe":59.55,"latitud":53.3734053,"longitud":-6.3695384},
{"id":134,"fecha":"2017-08-03","importe":85.62,"latitud":-22.8997858,"longitud":-49.6258261},
{"id":135,"fecha":"2017-02-06","importe":99.07,"latitud":-8.1468836,"longitud":-78.1721189},
{"id":136,"fecha":"2017-04-22","importe":60.99,"latitud":-8.5735243,"longitud":120.6602534},
{"id":137,"fecha":"2017-10-15","importe":12.86,"latitud":55.7646,"longitud":37.6911},
{"id":138,"fecha":"2017-07-31","importe":33.81,"latitud":31.282537,"longitud":120.819425},
{"id":139,"fecha":"2017-02-16","importe":60.54,"latitud":-6.7821701,"longitud":-39.0293884},
{"id":140,"fecha":"2017-03-05","importe":67.89,"latitud":31.4292388,"longitud":31.1252135},
{"id":141,"fecha":"2017-02-02","importe":38.42,"latitud":"35.74716","longitud":"105.42118"},
{"id":142,"fecha":"2017-01-12","importe":73.74,"latitud":59.6313435,"longitud":39.72516},
{"id":143,"fecha":"2017-05-24","importe":69.93,"latitud":55.9576019,"longitud":36.2249059},
{"id":144,"fecha":"2017-06-28","importe":98.51,"latitud":6.4482939,"longitud":101.8107351},
{"id":145,"fecha":"2017-08-24","importe":78.86,"latitud":"28.3","longitud":"88.53333"},
{"id":146,"fecha":"2017-03-18","importe":73.31,"latitud":31.207751,"longitud":121.293544},
{"id":147,"fecha":"2017-05-11","importe":90.71,"latitud":41.8977003,"longitud":12.5097274},
{"id":148,"fecha":"2017-04-21","importe":17.94,"latitud":30.910965,"longitud":114.827038},
{"id":149,"fecha":"2017-08-17","importe":95.78,"latitud":31.0424566,"longitud":30.4727503},
{"id":150,"fecha":"2017-07-12","importe":14.09,"latitud":24.716803,"longitud":118.476341},
{"id":151,"fecha":"2017-03-31","importe":81.38,"latitud":"52.66679","longitud":"-106.33446"},
{"id":152,"fecha":"2017-07-28","importe":96.55,"latitud":39.4472756,"longitud":45.2771033},
{"id":153,"fecha":"2017-10-15","importe":65.88,"latitud":53.3656498,"longitud":34.1098425},
{"id":154,"fecha":"2017-12-10","importe":72.38,"latitud":"36.61922","longitud":"69.62805"},
{"id":155,"fecha":"2017-04-25","importe":99.11,"latitud":-16.131343,"longitud":-62.0399534},
{"id":156,"fecha":"2017-01-07","importe":95.02,"latitud":4.7874827,"longitud":-76.1635313},
{"id":157,"fecha":"2017-05-09","importe":13.63,"latitud":-34.588234,"longitud":-58.6876178},
{"id":158,"fecha":"2017-04-20","importe":29.86,"latitud":12.0457956,"longitud":124.1609842},
{"id":159,"fecha":"2017-01-03","importe":62.67,"latitud":-6.9927364,"longitud":107.8731968},
{"id":160,"fecha":"2017-03-21","importe":82.85,"latitud":59.3335257,"longitud":57.2583377},
{"id":161,"fecha":"2017-10-11","importe":23.71,"latitud":37.9746194,"longitud":23.6412944},
{"id":162,"fecha":"2017-08-07","importe":9.01,"latitud":45.0177112,"longitud":78.3804417},
{"id":163,"fecha":"2017-10-02","importe":50.8,"latitud":"-7.4536","longitud":"108.6423"},
{"id":164,"fecha":"2017-01-16","importe":77.29,"latitud":-21.2129007,"longitud":-159.7823059},
{"id":165,"fecha":"2018-01-04","importe":90.89,"latitud":31.511818,"longitud":93.517216},
{"id":166,"fecha":"2017-03-14","importe":2.31,"latitud":-7.2360801,"longitud":106.7175669},
{"id":167,"fecha":"2017-01-28","importe":37.51,"latitud":34.2398892,"longitud":135.2395881},
{"id":168,"fecha":"2017-01-20","importe":97.04,"latitud":9.0627148,"longitud":123.0290352},
{"id":169,"fecha":"2017-09-17","importe":1.39,"latitud":9.8411782,"longitud":123.9121342},
{"id":170,"fecha":"2017-11-24","importe":51.08,"latitud":46.218184,"longitud":15.38742},
{"id":171,"fecha":"2017-06-24","importe":37.9,"latitud":36.6107151,"longitud":27.1320962},
{"id":172,"fecha":"2017-11-24","importe":16.43,"latitud":-13.67337,"longitud":-71.925346},
{"id":173,"fecha":"2017-08-26","importe":31.47,"latitud":35.891275,"longitud":127.253895},
{"id":174,"fecha":"2017-11-27","importe":97.74,"latitud":31.121606,"longitud":104.38784},
{"id":175,"fecha":"2017-04-30","importe":73.11,"latitud":48.5308416,"longitud":1.4534246},
{"id":176,"fecha":"2017-12-21","importe":36.72,"latitud":10.3089871,"longitud":123.8905692},
{"id":177,"fecha":"2017-10-15","importe":95.31,"latitud":31.2570292,"longitud":121.492796},
{"id":178,"fecha":"2017-11-29","importe":97.78,"latitud":-7.76929,"longitud":114.2241895},
{"id":179,"fecha":"2017-06-21","importe":29.55,"latitud":31.926481,"longitud":35.236911},
{"id":180,"fecha":"2017-01-28","importe":72.44,"latitud":41.8136349,"longitud":123.5288621},
{"id":181,"fecha":"2017-06-01","importe":86.26,"latitud":31.927317,"longitud":35.299468},
{"id":182,"fecha":"2017-05-10","importe":54.14,"latitud":54.0473494,"longitud":61.7492324},
{"id":183,"fecha":"2017-09-24","importe":92.42,"latitud":50.1757487,"longitud":27.0559924},
{"id":184,"fecha":"2017-12-05","importe":24.45,"latitud":47.1860699,"longitud":33.7785346},
{"id":185,"fecha":"2017-08-30","importe":1.94,"latitud":45.1596128,"longitud":19.1621323},
{"id":186,"fecha":"2017-02-17","importe":27.4,"latitud":36.639033,"longitud":114.462061},
{"id":187,"fecha":"2017-07-01","importe":82.44,"latitud":6.950203,"longitud":80.638098},
{"id":188,"fecha":"2017-12-26","importe":42.17,"latitud":1.7533329,"longitud":110.3164529},
{"id":189,"fecha":"2017-05-21","importe":87.9,"latitud":40.7465732,"longitud":-7.8321881},
{"id":190,"fecha":"2017-06-10","importe":28.73,"latitud":13.5742541,"longitud":-89.2062985},
{"id":191,"fecha":"2017-02-26","importe":34.66,"latitud":39.8116909,"longitud":113.1029629},
{"id":192,"fecha":"2017-07-20","importe":84.27,"latitud":41.050928,"longitud":36.861253},
{"id":193,"fecha":"2017-05-14","importe":20.7,"latitud":49.189451,"longitud":-0.804935},
{"id":194,"fecha":"2017-03-13","importe":88.79,"latitud":-3.3072032,"longitud":-39.3621196},
{"id":195,"fecha":"2017-06-16","importe":48.29,"latitud":49.9061322,"longitud":22.5155104},
{"id":196,"fecha":"2017-03-13","importe":11.73,"latitud":30.501816,"longitud":110.738098},
{"id":197,"fecha":"2017-06-26","importe":27.9,"latitud":46.562247,"longitud":125.1353261},
{"id":198,"fecha":"2017-04-03","importe":23.67,"latitud":64.1272315,"longitud":-16.014091},
{"id":199,"fecha":"2017-02-27","importe":49.44,"latitud":35.9411947,"longitud":139.3061655},
{"id":200,"fecha":"2017-08-16","importe":85.61,"latitud":-9.9732219,"longitud":124.5306837},
{"id":201,"fecha":"2017-06-01","importe":81.62,"latitud":16.7011823,"longitud":121.5954324},
{"id":202,"fecha":"2017-08-10","importe":62.03,"latitud":7.8518373,"longitud":123.5810068},
{"id":203,"fecha":"2017-09-06","importe":88.88,"latitud":25.0617484,"longitud":68.6593883},
{"id":204,"fecha":"2017-01-17","importe":7.15,"latitud":-28.71667,"longitud":31.9},
{"id":205,"fecha":"2017-07-23","importe":25.81,"latitud":59.922175,"longitud":10.727404},
{"id":206,"fecha":"2017-04-07","importe":6.47,"latitud":36.276526,"longitud":109.351019},
{"id":207,"fecha":"2017-04-04","importe":80.29,"latitud":31.032243,"longitud":121.227747},
{"id":208,"fecha":"2017-04-02","importe":26.28,"latitud":35.0552848,"longitud":137.0128051},
{"id":209,"fecha":"2017-01-11","importe":45.75,"latitud":15.7924989,"longitud":120.988562},
{"id":210,"fecha":"2017-09-15","importe":44.51,"latitud":32.5171226,"longitud":130.6026459},
{"id":211,"fecha":"2017-01-23","importe":8.4,"latitud":14.453071,"longitud":121.030984},
{"id":212,"fecha":"2017-08-12","importe":97.85,"latitud":41.4242264,"longitud":-8.6722459},
{"id":213,"fecha":"2017-06-16","importe":34.36,"latitud":"61.13336","longitud":"149.63283"},
{"id":214,"fecha":"2017-10-24","importe":34.51,"latitud":30.405177,"longitud":103.798484},
{"id":215,"fecha":"2017-09-05","importe":57.48,"latitud":"12.44311","longitud":"122.02106"},
{"id":216,"fecha":"2017-09-13","importe":51.31,"latitud":26.2285161,"longitud":50.5860497},
{"id":217,"fecha":"2017-03-22","importe":41.58,"latitud":45.697904,"longitud":0.964671},
{"id":218,"fecha":"2017-06-15","importe":52.22,"latitud":36.1093631,"longitud":103.694265},
{"id":219,"fecha":"2017-02-09","importe":30.6,"latitud":51.82709,"longitud":17.4539199},
{"id":220,"fecha":"2018-01-02","importe":34.28,"latitud":49.8073734,"longitud":21.4331923},
{"id":221,"fecha":"2017-06-08","importe":14.67,"latitud":"34.66667","longitud":"61.06667"},
{"id":222,"fecha":"2017-12-20","importe":22.75,"latitud":42.319384,"longitud":-85.1872878},
{"id":223,"fecha":"2017-06-06","importe":57.11,"latitud":40.7702563,"longitud":47.0496015},
{"id":224,"fecha":"2017-02-24","importe":50.52,"latitud":4.9918699,"longitud":-73.87076},
{"id":225,"fecha":"2017-05-03","importe":98.79,"latitud":14.5694082,"longitud":121.0215733},
{"id":226,"fecha":"2017-02-26","importe":70.78,"latitud":38.9190379,"longitud":20.8889257},
{"id":227,"fecha":"2017-10-28","importe":39.45,"latitud":11.0855409,"longitud":7.7199454},
{"id":228,"fecha":"2017-08-27","importe":19.76,"latitud":60.5717591,"longitud":26.050814},
{"id":229,"fecha":"2017-09-17","importe":45.47,"latitud":41.0901834,"longitud":-73.541744},
{"id":230,"fecha":"2017-09-27","importe":70.02,"latitud":29.713689,"longitud":116.339882},
{"id":231,"fecha":"2017-04-09","importe":11.89,"latitud":3.1523104,"longitud":101.7178316},
{"id":232,"fecha":"2017-11-25","importe":19.9,"latitud":-6.314167,"longitud":-78.693932},
{"id":233,"fecha":"2017-05-17","importe":50.18,"latitud":"35.90414","longitud":"14.45415"},
{"id":234,"fecha":"2017-06-24","importe":33.85,"latitud":53.3004898,"longitud":-6.2634596},
{"id":235,"fecha":"2017-04-03","importe":7.39,"latitud":-34.1998816,"longitud":22.104272},
{"id":236,"fecha":"2017-12-20","importe":36.93,"latitud":48.2113225,"longitud":26.3003025},
{"id":237,"fecha":"2017-01-24","importe":68.61,"latitud":43.9705397,"longitud":19.5649108},
{"id":238,"fecha":"2017-03-18","importe":1.24,"latitud":31.869937,"longitud":35.065202},
{"id":239,"fecha":"2017-07-29","importe":14.17,"latitud":-8.0716019,"longitud":112.1758089},
{"id":240,"fecha":"2017-03-27","importe":58.96,"latitud":13.8792736,"longitud":45.8695185},
{"id":241,"fecha":"2017-02-15","importe":29.11,"latitud":7.0115716,"longitud":39.9761012},
{"id":242,"fecha":"2017-07-20","importe":93.78,"latitud":27.872028,"longitud":112.969479},
{"id":243,"fecha":"2017-02-10","importe":7.03,"latitud":20.1473464,"longitud":-102.7601176},
{"id":244,"fecha":"2017-01-05","importe":74.6,"latitud":35.612093,"longitud":139.5149873},
{"id":245,"fecha":"2017-03-21","importe":29.3,"latitud":10.0304186,"longitud":123.5161366},
{"id":246,"fecha":"2017-05-07","importe":41.25,"latitud":39.989836,"longitud":117.274909},
{"id":247,"fecha":"2017-06-22","importe":73.41,"latitud":-7.0341681,"longitud":108.3207992},
{"id":248,"fecha":"2017-10-05","importe":60.51,"latitud":39.708782,"longitud":116.796531},
{"id":249,"fecha":"2017-06-23","importe":70.72,"latitud":46.4574669,"longitud":121.3449344},
{"id":250,"fecha":"2017-04-18","importe":67.31,"latitud":41.7555687,"longitud":42.8315218},
{"id":251,"fecha":"2018-01-06","importe":58.83,"latitud":31.689957,"longitud":35.188236},
{"id":252,"fecha":"2017-10-03","importe":52.33,"latitud":-37.5481968,"longitud":-62.7684331},
{"id":253,"fecha":"2017-04-13","importe":99.36,"latitud":52.9961639,"longitud":18.509675},
{"id":254,"fecha":"2017-12-13","importe":14.25,"latitud":-28.6727702,"longitud":-49.3733771},
{"id":255,"fecha":"2017-01-18","importe":42.74,"latitud":6.485702,"longitud":-75.393831},
{"id":256,"fecha":"2017-01-07","importe":27.16,"latitud":1.411517,"longitud":111.528999},
{"id":257,"fecha":"2017-06-24","importe":98.46,"latitud":51.4090959,"longitud":22.051777},
{"id":258,"fecha":"2017-01-16","importe":7.69,"latitud":32.7348953,"longitud":-117.0970596},
{"id":259,"fecha":"2017-05-25","importe":43.25,"latitud":58.695946,"longitud":11.2533509},
{"id":260,"fecha":"2017-01-13","importe":38.04,"latitud":50.1617318,"longitud":16.9473457},
{"id":261,"fecha":"2017-06-23","importe":7.72,"latitud":-29.8990311,"longitud":-51.0536949},
{"id":262,"fecha":"2017-02-17","importe":83.67,"latitud":47.6022755,"longitud":6.2194418},
{"id":263,"fecha":"2017-07-19","importe":50.24,"latitud":49.99621,"longitud":19.4374699},
{"id":264,"fecha":"2017-10-03","importe":65.99,"latitud":53.286578,"longitud":36.5904759},
{"id":265,"fecha":"2017-07-07","importe":77.63,"latitud":34.527114,"longitud":108.842622},
{"id":266,"fecha":"2017-10-29","importe":75.97,"latitud":10.1558257,"longitud":-68.5634682},
{"id":267,"fecha":"2017-10-25","importe":29.42,"latitud":29.705077,"longitud":116.00193},
{"id":268,"fecha":"2017-01-19","importe":27.02,"latitud":36.0941745,"longitud":28.0162191},
{"id":269,"fecha":"2017-10-22","importe":8.98,"latitud":56.6338771,"longitud":47.8109854},
{"id":270,"fecha":"2017-09-20","importe":51.89,"latitud":19.4838854,"longitud":-99.1135903},
{"id":271,"fecha":"2017-08-20","importe":19.09,"latitud":-17.4850319,"longitud":16.3287199},
{"id":272,"fecha":"2017-11-14","importe":70.47,"latitud":32.968121,"longitud":130.6358305},
{"id":273,"fecha":"2017-05-08","importe":70.87,"latitud":22.826877,"longitud":107.840624},
{"id":274,"fecha":"2017-09-06","importe":73.06,"latitud":40.9512231,"longitud":-8.4860645},
{"id":275,"fecha":"2017-05-15","importe":81.38,"latitud":57.7385277,"longitud":12.0633439},
{"id":276,"fecha":"2017-02-19","importe":33.05,"latitud":49.9857805,"longitud":18.9477092},
{"id":277,"fecha":"2017-12-02","importe":5.61,"latitud":50.9129256,"longitud":16.432166},
{"id":278,"fecha":"2017-05-15","importe":61.72,"latitud":53.3004898,"longitud":-6.2634596},
{"id":279,"fecha":"2017-05-17","importe":43.73,"latitud":8.3048218,"longitud":-80.5569566},
{"id":280,"fecha":"2017-05-03","importe":38.01,"latitud":59.221847,"longitud":10.9469346},
{"id":281,"fecha":"2017-08-26","importe":29.87,"latitud":57.6593247,"longitud":11.8915238},
{"id":282,"fecha":"2018-01-04","importe":80.64,"latitud":5.9840985,"longitud":116.0761121},
{"id":283,"fecha":"2017-10-02","importe":20.23,"latitud":43.2697175,"longitud":28.0236322},
{"id":284,"fecha":"2017-10-07","importe":80.7,"latitud":28.801077,"longitud":108.102703},
{"id":285,"fecha":"2018-01-07","importe":22.03,"latitud":52.7066595,"longitud":21.2481067},
{"id":286,"fecha":"2017-10-05","importe":61.5,"latitud":48.6386409,"longitud":15.0253027},
{"id":287,"fecha":"2017-03-12","importe":88.79,"latitud":42.9107635,"longitud":20.8386377},
{"id":288,"fecha":"2017-04-30","importe":93.96,"latitud":40.2023282,"longitud":116.2398367},
{"id":289,"fecha":"2018-01-01","importe":69.91,"latitud":"-10.95","longitud":"39.28333"},
{"id":290,"fecha":"2017-01-06","importe":30.62,"latitud":25.8056887,"longitud":68.4065979},
{"id":291,"fecha":"2017-12-02","importe":84.47,"latitud":38.5328,"longitud":-28.626058},
{"id":292,"fecha":"2017-06-18","importe":51.43,"latitud":41.949852,"longitud":127.596645},
{"id":293,"fecha":"2017-12-23","importe":83.66,"latitud":26.6523865,"longitud":85.7974141},
{"id":294,"fecha":"2017-04-16","importe":24.25,"latitud":53.806868,"longitud":-9.1327273},
{"id":295,"fecha":"2017-04-03","importe":23.58,"latitud":45.1616228,"longitud":17.9293975},
{"id":296,"fecha":"2017-03-15","importe":36.6,"latitud":-10.9564306,"longitud":-76.933337},
{"id":297,"fecha":"2017-09-23","importe":21.18,"latitud":52.67226,"longitud":17.1606199},
{"id":298,"fecha":"2017-12-19","importe":53.92,"latitud":"37.52027","longitud":"68.12824"},
{"id":299,"fecha":"2017-08-29","importe":55.05,"latitud":59.454973,"longitud":13.7250925},
{"id":300,"fecha":"2017-10-04","importe":43.75,"latitud":-27.0007882,"longitud":27.3733989},
{"id":301,"fecha":"2017-03-09","importe":17.66,"latitud":55.4872242,"longitud":37.3046546},
{"id":302,"fecha":"2018-01-08","importe":22.53,"latitud":"40.73192","longitud":"72.76177"},
{"id":303,"fecha":"2017-02-04","importe":68.9,"latitud":32.169335,"longitud":119.19095},
{"id":304,"fecha":"2017-02-20","importe":62.65,"latitud":5.5298168,"longitud":-0.705779},
{"id":305,"fecha":"2017-07-09","importe":48.95,"latitud":56.2254132,"longitud":87.7719548},
{"id":306,"fecha":"2017-04-22","importe":82.51,"latitud":"49.65841","longitud":"21.97678"},
{"id":307,"fecha":"2017-01-17","importe":51.72,"latitud":52.9352213,"longitud":70.188509},
{"id":308,"fecha":"2017-09-19","importe":48.44,"latitud":42.5944931,"longitud":-5.6195112},
{"id":309,"fecha":"2017-06-29","importe":79.93,"latitud":37.8512533,"longitud":140.6090975},
{"id":310,"fecha":"2017-09-02","importe":32.09,"latitud":16.6078107,"longitud":101.9291015},
{"id":311,"fecha":"2017-10-30","importe":83.06,"latitud":43.3667218,"longitud":-72.3412362},
{"id":312,"fecha":"2017-07-23","importe":88.07,"latitud":10.1794092,"longitud":-66.7248247},
{"id":313,"fecha":"2017-04-15","importe":75.36,"latitud":-34.6057351,"longitud":-58.4882729},
{"id":314,"fecha":"2017-11-21","importe":1.68,"latitud":58.002775,"longitud":25.9222439},
{"id":315,"fecha":"2017-06-16","importe":50.3,"latitud":18.7744983,"longitud":98.9989307},
{"id":316,"fecha":"2017-06-15","importe":51.51,"latitud":-7.3055182,"longitud":110.4947314},
{"id":317,"fecha":"2017-07-01","importe":58.49,"latitud":31.2470602,"longitud":74.2308449},
{"id":318,"fecha":"2017-04-25","importe":44.69,"latitud":23.7369164,"longitud":-99.1411154},
{"id":319,"fecha":"2017-12-18","importe":71.29,"latitud":41.2177603,"longitud":19.969783},
{"id":320,"fecha":"2017-11-25","importe":92.22,"latitud":37.08828,"longitud":79.855399},
{"id":321,"fecha":"2017-02-24","importe":29.92,"latitud":13.513211,"longitud":122.469352},
{"id":322,"fecha":"2018-01-01","importe":57.18,"latitud":49.7724099,"longitud":5.981844},
{"id":323,"fecha":"2017-09-01","importe":34.17,"latitud":13.7656119,"longitud":100.486253},
{"id":324,"fecha":"2017-05-03","importe":16.64,"latitud":40.638059,"longitud":-8.7470806},
{"id":325,"fecha":"2017-07-15","importe":86.42,"latitud":13.8506865,"longitud":44.7029603},
{"id":326,"fecha":"2017-05-20","importe":69.34,"latitud":49.6994861,"longitud":16.4312865},
{"id":327,"fecha":"2017-09-17","importe":72.36,"latitud":32.990664,"longitud":112.528308},
{"id":328,"fecha":"2017-05-01","importe":55.72,"latitud":56.7481754,"longitud":61.3755425},
{"id":329,"fecha":"2017-09-01","importe":5.25,"latitud":-2.945569,"longitud":104.7334404},
{"id":330,"fecha":"2017-04-24","importe":49.0,"latitud":-7.5153339,"longitud":108.7660364},
{"id":331,"fecha":"2017-02-21","importe":45.68,"latitud":-10.2024984,"longitud":123.5988052},
{"id":332,"fecha":"2017-03-16","importe":86.9,"latitud":32.4402243,"longitud":36.5634898},
{"id":333,"fecha":"2017-04-10","importe":63.78,"latitud":31.208465,"longitud":121.526733},
{"id":334,"fecha":"2017-03-04","importe":50.39,"latitud":49.2574664,"longitud":-123.0419607},
{"id":335,"fecha":"2017-02-08","importe":8.14,"latitud":27.845011,"longitud":117.383641},
{"id":336,"fecha":"2017-10-30","importe":12.02,"latitud":49.1169513,"longitud":101.449837},
{"id":337,"fecha":"2017-05-11","importe":96.89,"latitud":15.0270435,"longitud":-91.148259},
{"id":338,"fecha":"2017-06-10","importe":57.68,"latitud":32.4237461,"longitud":-104.2655282},
{"id":339,"fecha":"2017-09-24","importe":67.87,"latitud":-39.8173788,"longitud":-73.2425333},
{"id":340,"fecha":"2017-01-24","importe":65.33,"latitud":55.1393981,"longitud":54.6406219},
{"id":341,"fecha":"2017-03-19","importe":41.83,"latitud":34.8554595,"longitud":35.8586671},
{"id":342,"fecha":"2017-06-17","importe":85.04,"latitud":-6.9895044,"longitud":110.4329118},
{"id":343,"fecha":"2017-05-30","importe":75.83,"latitud":58.9918209,"longitud":55.1890813},
{"id":344,"fecha":"2017-04-21","importe":76.96,"latitud":60.3516509,"longitud":5.3427677},
{"id":345,"fecha":"2017-08-03","importe":12.61,"latitud":15.4418966,"longitud":-61.2583352},
{"id":346,"fecha":"2017-08-01","importe":41.35,"latitud":32.851086,"longitud":129.9478595},
{"id":347,"fecha":"2018-01-05","importe":46.52,"latitud":8.2853585,"longitud":-78.1792434},
{"id":348,"fecha":"2017-03-21","importe":40.65,"latitud":16.7445704,"longitud":100.1367166},
{"id":349,"fecha":"2017-08-01","importe":65.24,"latitud":52.579839,"longitud":19.6295361},
{"id":350,"fecha":"2017-08-01","importe":91.52,"latitud":28.6559273,"longitud":121.2198521},
{"id":351,"fecha":"2018-01-01","importe":36.32,"latitud":30.0510093,"longitud":119.9499657},
{"id":352,"fecha":"2017-07-26","importe":36.67,"latitud":15.4977734,"longitud":100.2151578},
{"id":353,"fecha":"2017-01-15","importe":98.12,"latitud":41.3537964,"longitud":-8.540112},
{"id":354,"fecha":"2017-11-19","importe":32.89,"latitud":10.6095479,"longitud":122.955299},
{"id":355,"fecha":"2017-04-05","importe":50.9,"latitud":42.1414947,"longitud":21.6949963},
{"id":356,"fecha":"2017-08-24","importe":3.94,"latitud":47.9962116,"longitud":-4.1020654},
{"id":357,"fecha":"2017-11-06","importe":24.74,"latitud":61.845034,"longitud":129.608929},
{"id":358,"fecha":"2017-09-27","importe":84.13,"latitud":49.8162612,"longitud":15.4768669},
{"id":359,"fecha":"2017-03-27","importe":64.74,"latitud":-23.8158392,"longitud":-45.3664809},
{"id":360,"fecha":"2017-06-26","importe":65.23,"latitud":28.39895,"longitud":113.02064},
{"id":361,"fecha":"2017-07-16","importe":72.85,"latitud":14.8108901,"longitud":-86.5425921},
{"id":362,"fecha":"2017-05-21","importe":92.03,"latitud":17.7127202,"longitud":121.4424473},
{"id":363,"fecha":"2017-03-27","importe":6.77,"latitud":32.6969212,"longitud":-117.1343318},
{"id":364,"fecha":"2017-09-21","importe":3.17,"latitud":26.641774,"longitud":118.17771},
{"id":365,"fecha":"2017-03-27","importe":87.71,"latitud":29.510961,"longitud":106.658065},
{"id":366,"fecha":"2017-09-18","importe":11.02,"latitud":51.7567459,"longitud":22.7817467},
{"id":367,"fecha":"2017-03-30","importe":54.73,"latitud":34.532295,"longitud":108.831894},
{"id":368,"fecha":"2017-01-17","importe":55.26,"latitud":50.300542,"longitud":2.801689},
{"id":369,"fecha":"2017-05-14","importe":2.22,"latitud":50.5878419,"longitud":13.8083154},
{"id":370,"fecha":"2017-11-15","importe":56.98,"latitud":-4.6633041,"longitud":120.0141251},
{"id":371,"fecha":"2017-10-28","importe":5.14,"latitud":17.7409147,"longitud":-91.7660525},
{"id":372,"fecha":"2017-08-01","importe":86.31,"latitud":27.8122083,"longitud":52.350694},
{"id":373,"fecha":"2017-03-16","importe":91.72,"latitud":36.865827,"longitud":116.231416},
{"id":374,"fecha":"2017-12-07","importe":71.29,"latitud":-7.5450262,"longitud":111.6556388},
{"id":375,"fecha":"2017-11-06","importe":40.35,"latitud":47.9450631,"longitud":111.4978265},
{"id":376,"fecha":"2017-05-08","importe":9.74,"latitud":33.5590518,"longitud":71.4915293},
{"id":377,"fecha":"2017-08-11","importe":91.52,"latitud":60.0456385,"longitud":30.3403569},
{"id":378,"fecha":"2017-07-01","importe":52.65,"latitud":4.5791946,"longitud":13.6767958},
{"id":379,"fecha":"2017-08-10","importe":4.44,"latitud":34.4045029,"longitud":132.5485088},
{"id":380,"fecha":"2017-10-05","importe":56.73,"latitud":22.9702067,"longitud":-82.3858672},
{"id":381,"fecha":"2017-11-05","importe":6.66,"latitud":-24.1377718,"longitud":19.1107114},
{"id":382,"fecha":"2017-10-28","importe":37.62,"latitud":51.370484,"longitud":22.3461706},
{"id":383,"fecha":"2018-01-08","importe":72.04,"latitud":6.0343516,"longitud":124.5217429},
{"id":384,"fecha":"2017-07-20","importe":62.97,"latitud":15.0983576,"longitud":-90.3903337},
{"id":385,"fecha":"2017-08-08","importe":33.51,"latitud":30.20003,"longitud":115.038835},
{"id":386,"fecha":"2017-04-05","importe":8.09,"latitud":"1.08142","longitud":"100.24475"},
{"id":387,"fecha":"2017-11-07","importe":25.36,"latitud":30.453667,"longitud":114.872199},
{"id":388,"fecha":"2017-04-13","importe":69.12,"latitud":"46.65684","longitud":"87.77418"},
{"id":389,"fecha":"2017-08-12","importe":90.18,"latitud":4.6096768,"longitud":101.1064003},
{"id":390,"fecha":"2017-02-08","importe":80.42,"latitud":"55.84069","longitud":"55.40834"},
{"id":391,"fecha":"2017-01-23","importe":20.03,"latitud":57.630161,"longitud":25.692493},
{"id":392,"fecha":"2017-01-29","importe":20.23,"latitud":14.7174829,"longitud":-91.3019094},
{"id":393,"fecha":"2017-09-14","importe":2.35,"latitud":16.004175,"longitud":120.7806412},
{"id":394,"fecha":"2017-10-03","importe":75.09,"latitud":60.5734263,"longitud":15.6105128},
{"id":395,"fecha":"2017-08-21","importe":8.85,"latitud":37.1228583,"longitud":69.1581192},
{"id":396,"fecha":"2017-11-07","importe":86.92,"latitud":3.1140502,"longitud":43.651925},
{"id":397,"fecha":"2017-08-03","importe":49.18,"latitud":-0.0998238,"longitud":34.2747004},
{"id":398,"fecha":"2017-10-04","importe":74.83,"latitud":34.748808,"longitud":113.6656069},
{"id":399,"fecha":"2017-10-07","importe":84.44,"latitud":36.39141,"longitud":116.632262},
{"id":400,"fecha":"2017-05-11","importe":59.42,"latitud":30.798775,"longitud":121.33638},
{"id":401,"fecha":"2017-03-27","importe":58.31,"latitud":43.3815181,"longitud":133.9055702},
{"id":402,"fecha":"2017-08-15","importe":14.93,"latitud":38.4832851,"longitud":-9.1025502},
{"id":403,"fecha":"2017-03-14","importe":73.28,"latitud":16.8449454,"longitud":120.8719556},
{"id":404,"fecha":"2017-10-08","importe":70.74,"latitud":30.912962,"longitud":75.854942},
{"id":405,"fecha":"2017-06-02","importe":47.24,"latitud":-8.5335451,"longitud":-172.5165543},
{"id":406,"fecha":"2017-11-30","importe":2.66,"latitud":29.185721,"longitud":117.468181},
{"id":407,"fecha":"2017-11-22","importe":49.65,"latitud":-5.3102888,"longitud":119.742604},
{"id":408,"fecha":"2017-12-05","importe":49.27,"latitud":11.394604,"longitud":-69.6810338},
{"id":409,"fecha":"2017-01-05","importe":73.88,"latitud":30.3364517,"longitud":71.756132},
{"id":410,"fecha":"2018-01-09","importe":33.85,"latitud":35.1744271,"longitud":-6.1473964},
{"id":411,"fecha":"2017-12-14","importe":16.41,"latitud":-36.9518016,"longitud":174.8398349},
{"id":412,"fecha":"2017-02-17","importe":30.2,"latitud":32.010214,"longitud":119.606439},
{"id":413,"fecha":"2017-12-09","importe":63.63,"latitud":23.632671,"longitud":113.529424},
{"id":414,"fecha":"2017-11-10","importe":82.52,"latitud":0.1716468,"longitud":31.9060633},
{"id":415,"fecha":"2017-05-19","importe":69.02,"latitud":-6.1382732,"longitud":-77.0967357},
{"id":416,"fecha":"2017-07-10","importe":69.32,"latitud":48.382005,"longitud":-123.53785},
{"id":417,"fecha":"2017-04-13","importe":90.3,"latitud":-7.543398,"longitud":110.822966},
{"id":418,"fecha":"2017-10-12","importe":21.5,"latitud":55.3605576,"longitud":52.0111855},
{"id":419,"fecha":"2017-05-31","importe":53.02,"latitud":22.562964,"longitud":113.156269},
{"id":420,"fecha":"2017-02-28","importe":48.49,"latitud":24.052487,"longitud":114.701871},
{"id":421,"fecha":"2017-04-03","importe":17.48,"latitud":-6.9654201,"longitud":112.2443628},
{"id":422,"fecha":"2017-03-11","importe":62.06,"latitud":36.483484,"longitud":114.948606},
{"id":423,"fecha":"2017-09-20","importe":61.29,"latitud":54.2125609,"longitud":24.5743709},
{"id":424,"fecha":"2017-02-17","importe":9.06,"latitud":"7.91667","longitud":"123.75"},
{"id":425,"fecha":"2017-10-17","importe":88.36,"latitud":53.4913801,"longitud":-2.867264},
{"id":426,"fecha":"2017-08-18","importe":97.57,"latitud":53.602954,"longitud":53.0390034},
{"id":427,"fecha":"2017-05-10","importe":61.99,"latitud":34.746611,"longitud":113.625328},
{"id":428,"fecha":"2018-01-03","importe":38.06,"latitud":-7.2526036,"longitud":108.4543113},
{"id":429,"fecha":"2017-08-26","importe":30.25,"latitud":36.6454207,"longitud":52.9009502},
{"id":430,"fecha":"2017-06-05","importe":51.9,"latitud":46.5884132,"longitud":14.2652932},
{"id":431,"fecha":"2017-05-20","importe":27.53,"latitud":9.4934042,"longitud":35.5011298},
{"id":432,"fecha":"2017-07-03","importe":26.02,"latitud":22.579117,"longitud":113.081508},
{"id":433,"fecha":"2017-10-09","importe":15.16,"latitud":7.2466086,"longitud":16.4346979},
{"id":434,"fecha":"2017-12-05","importe":9.81,"latitud":-6.3079232,"longitud":107.172085},
{"id":435,"fecha":"2017-06-15","importe":82.43,"latitud":4.02926,"longitud":-74.974795},
{"id":436,"fecha":"2017-05-18","importe":87.79,"latitud":-8.6743207,"longitud":116.1093533},
{"id":437,"fecha":"2017-11-21","importe":76.55,"latitud":49.2251043,"longitud":23.3483512},
{"id":438,"fecha":"2017-08-19","importe":72.85,"latitud":18.2886378,"longitud":-99.4526826},
{"id":439,"fecha":"2017-08-12","importe":56.37,"latitud":55.4254871,"longitud":13.7952433},
{"id":440,"fecha":"2017-04-04","importe":51.8,"latitud":"63.75059","longitud":"-68.51449"},
{"id":441,"fecha":"2017-09-10","importe":67.72,"latitud":49.2513639,"longitud":22.6952648},
{"id":442,"fecha":"2017-04-07","importe":19.58,"latitud":37.6917333,"longitud":126.597295},
{"id":443,"fecha":"2017-10-18","importe":5.17,"latitud":-8.1448805,"longitud":-79.0517936},
{"id":444,"fecha":"2017-04-29","importe":97.05,"latitud":-7.0065012,"longitud":112.3784821},
{"id":445,"fecha":"2017-09-28","importe":69.83,"latitud":7.3832138,"longitud":122.804355},
{"id":446,"fecha":"2017-09-13","importe":31.43,"latitud":59.905383,"longitud":10.7674925},
{"id":447,"fecha":"2017-04-28","importe":57.66,"latitud":-22.6148577,"longitud":-46.7057601},
{"id":448,"fecha":"2017-07-14","importe":65.22,"latitud":-11.2568167,"longitud":-39.0710754},
{"id":449,"fecha":"2017-11-25","importe":84.28,"latitud":-23.400962,"longitud":-46.011014},
{"id":450,"fecha":"2017-03-23","importe":74.2,"latitud":50.5416315,"longitud":13.7594816},
{"id":451,"fecha":"2017-09-18","importe":16.56,"latitud":52.5916842,"longitud":32.7616732},
{"id":452,"fecha":"2017-09-27","importe":32.88,"latitud":22.9221592,"longitud":-82.6861446},
{"id":453,"fecha":"2017-12-05","importe":16.08,"latitud":16.1797497,"longitud":107.7215969},
{"id":454,"fecha":"2017-10-30","importe":94.05,"latitud":-6.2278972,"longitud":106.7045995},
{"id":455,"fecha":"2017-06-22","importe":39.16,"latitud":-22.0030299,"longitud":-47.4265802},
{"id":456,"fecha":"2017-11-14","importe":50.83,"latitud":8.1325883,"longitud":125.1263623},
{"id":457,"fecha":"2017-10-19","importe":94.84,"latitud":-6.4761564,"longitud":111.0400034},
{"id":458,"fecha":"2017-09-29","importe":52.42,"latitud":7.877332,"longitud":9.7790227},
{"id":459,"fecha":"2017-07-28","importe":98.63,"latitud":33.4243373,"longitud":-82.1387233},
{"id":460,"fecha":"2017-02-25","importe":91.02,"latitud":52.803304,"longitud":51.1735574},
{"id":461,"fecha":"2017-09-16","importe":27.5,"latitud":31.172739,"longitud":115.008163},
{"id":462,"fecha":"2017-02-18","importe":39.28,"latitud":-6.4901067,"longitud":106.8306951},
{"id":463,"fecha":"2017-07-07","importe":64.22,"latitud":54.9137734,"longitud":33.2971034},
{"id":464,"fecha":"2017-08-19","importe":31.29,"latitud":35.237207,"longitud":102.827734},
{"id":465,"fecha":"2017-11-18","importe":64.67,"latitud":-7.6838962,"longitud":109.9764822},
{"id":466,"fecha":"2018-01-09","importe":12.17,"latitud":14.6632212,"longitud":-90.6132158},
{"id":467,"fecha":"2017-07-28","importe":40.52,"latitud":13.7192462,"longitud":100.5583692},
{"id":468,"fecha":"2017-10-20","importe":99.4,"latitud":53.7080404,"longitud":87.8049523},
{"id":469,"fecha":"2017-04-06","importe":60.86,"latitud":42.34,"longitud":-71.05},
{"id":470,"fecha":"2017-07-28","importe":80.4,"latitud":37.429832,"longitud":110.88907},
{"id":471,"fecha":"2017-01-07","importe":96.25,"latitud":31.707237,"longitud":-106.45163},
{"id":472,"fecha":"2017-08-09","importe":22.24,"latitud":27.8469,"longitud":105.049027},
{"id":473,"fecha":"2017-11-18","importe":32.28,"latitud":-19.6499319,"longitud":-45.2243578},
{"id":474,"fecha":"2017-03-12","importe":32.88,"latitud":43.817071,"longitud":125.323544},
{"id":475,"fecha":"2017-10-27","importe":54.93,"latitud":49.4136066,"longitud":16.5814019},
{"id":476,"fecha":"2017-09-30","importe":5.98,"latitud":39.5093131,"longitud":-7.8148208},
{"id":477,"fecha":"2017-04-06","importe":66.88,"latitud":45.851694,"longitud":128.8295359},
{"id":478,"fecha":"2017-04-14","importe":39.5,"latitud":13.81425,"longitud":-16.4405872},
{"id":479,"fecha":"2017-04-03","importe":96.68,"latitud":-5.357293,"longitud":104.7768894},
{"id":480,"fecha":"2017-10-16","importe":82.4,"latitud":11.0465171,"longitud":14.1407948},
{"id":481,"fecha":"2017-05-28","importe":92.89,"latitud":44.596097,"longitud":129.591591},
{"id":482,"fecha":"2017-09-22","importe":10.76,"latitud":-8.5610656,"longitud":115.1372238},
{"id":483,"fecha":"2017-07-04","importe":53.83,"latitud":-7.268358,"longitud":108.3237655},
{"id":484,"fecha":"2017-07-28","importe":98.71,"latitud":-6.9834604,"longitud":112.3367573},
{"id":485,"fecha":"2017-05-21","importe":54.88,"latitud":18.8839458,"longitud":100.3031364},
{"id":486,"fecha":"2017-02-14","importe":95.4,"latitud":14.6387213,"longitud":121.0505978},
{"id":487,"fecha":"2017-06-30","importe":63.2,"latitud":24.4752847,"longitud":101.3431058},
{"id":488,"fecha":"2017-05-11","importe":43.92,"latitud":31.28855,"longitud":114.497908},
{"id":489,"fecha":"2017-11-01","importe":3.14,"latitud":56.1389673,"longitud":13.4016403},
{"id":490,"fecha":"2017-09-08","importe":86.75,"latitud":34.4740361,"longitud":47.6947512},
{"id":491,"fecha":"2017-06-23","importe":33.6,"latitud":1.0788178,"longitud":30.3896651},
{"id":492,"fecha":"2017-10-23","importe":21.56,"latitud":39.989836,"longitud":117.274909},
{"id":493,"fecha":"2017-01-23","importe":56.41,"latitud":31.275819,"longitud":121.499653},
{"id":494,"fecha":"2017-11-18","importe":55.63,"latitud":48.0545898,"longitud":24.2128943},
{"id":495,"fecha":"2017-10-10","importe":80.9,"latitud":55.3929058,"longitud":13.1416765},
{"id":496,"fecha":"2017-10-09","importe":45.02,"latitud":13.4760557,"longitud":-13.8651056},
{"id":497,"fecha":"2017-08-30","importe":11.78,"latitud":55.3479146,"longitud":65.323903},
{"id":498,"fecha":"2017-10-25","importe":97.37,"latitud":-37.0920575,"longitud":-73.1545822},
{"id":499,"fecha":"2017-02-26","importe":32.96,"latitud":48.1734633,"longitud":23.2972476},
{"id":500,"fecha":"2017-10-19","importe":12.48,"latitud":-6.7387737,"longitud":106.8768415},
{"id":501,"fecha":"2017-10-19","importe":73.7,"latitud":48.726098,"longitud":128.939819},
{"id":502,"fecha":"2017-03-13","importe":36.04,"latitud":15.8468527,"longitud":100.6647101},
{"id":503,"fecha":"2017-10-12","importe":75.13,"latitud":28.0159533,"longitud":69.5483393},
{"id":504,"fecha":"2017-09-24","importe":20.59,"latitud":23.241655,"longitud":111.539333},
{"id":505,"fecha":"2017-11-13","importe":35.18,"latitud":57.4346086,"longitud":15.0586931},
{"id":506,"fecha":"2017-01-31","importe":18.12,"latitud":-9.3601019,"longitud":-77.553344},
{"id":507,"fecha":"2018-01-09","importe":67.52,"latitud":7.1657856,"longitud":9.2841023},
{"id":508,"fecha":"2017-10-21","importe":15.35,"latitud":56.1342017,"longitud":38.4359113},
{"id":509,"fecha":"2017-02-17","importe":56.45,"latitud":5.976337,"longitud":121.2234268},
{"id":510,"fecha":"2017-03-07","importe":36.35,"latitud":35.104673,"longitud":118.356414},
{"id":511,"fecha":"2017-07-05","importe":88.36,"latitud":52.2597944,"longitud":21.94731},
{"id":512,"fecha":"2017-10-05","importe":63.69,"latitud":42.385811,"longitud":21.7405988},
{"id":513,"fecha":"2017-05-01","importe":44.89,"latitud":13.2206714,"longitud":-88.1401188},
{"id":514,"fecha":"2017-03-03","importe":61.49,"latitud":38.7043276,"longitud":-9.2315277},
{"id":515,"fecha":"2017-02-24","importe":97.23,"latitud":40.4938437,"longitud":-8.4743511},
{"id":516,"fecha":"2017-03-08","importe":25.51,"latitud":55.3226595,"longitud":38.7095805},
{"id":517,"fecha":"2018-01-10","importe":24.7,"latitud":22.4201574,"longitud":105.981739},
{"id":518,"fecha":"2017-10-15","importe":30.53,"latitud":23.296786,"longitud":113.823135},
{"id":519,"fecha":"2017-08-24","importe":85.7,"latitud":27.951451,"longitud":111.804777},
{"id":520,"fecha":"2017-02-05","importe":79.75,"latitud":16.7909044,"longitud":-62.2106241},
{"id":521,"fecha":"2017-11-02","importe":23.03,"latitud":39.585229,"longitud":117.238073},
{"id":522,"fecha":"2017-06-14","importe":7.74,"latitud":7.1473706,"longitud":125.4889603},
{"id":523,"fecha":"2017-01-01","importe":80.4,"latitud":42.654146,"longitud":122.749282},
{"id":524,"fecha":"2017-08-14","importe":37.73,"latitud":-23.5535152,"longitud":-46.9354774},
{"id":525,"fecha":"2017-10-29","importe":72.52,"latitud":49.6769375,"longitud":6.1338438},
{"id":526,"fecha":"2017-06-20","importe":84.24,"latitud":47.343506,"longitud":6.309262},
{"id":527,"fecha":"2017-05-23","importe":36.21,"latitud":45.6258385,"longitud":0.0629891},
{"id":528,"fecha":"2018-01-06","importe":49.01,"latitud":34.9978522,"longitud":36.1925483},
{"id":529,"fecha":"2017-01-03","importe":12.34,"latitud":15.661003,"longitud":-91.430201},
{"id":530,"fecha":"2017-11-17","importe":40.12,"latitud":-33.0061376,"longitud":-60.6722815},
{"id":531,"fecha":"2017-09-25","importe":53.34,"latitud":42.8518656,"longitud":-8.5638609},
{"id":532,"fecha":"2017-08-17","importe":49.69,"latitud":-14.1187849,"longitud":-72.2475967},
{"id":533,"fecha":"2017-07-07","importe":33.37,"latitud":40.2355256,"longitud":44.4514419},
{"id":534,"fecha":"2017-10-25","importe":45.39,"latitud":29.866818,"longitud":121.570383},
{"id":535,"fecha":"2017-06-13","importe":70.94,"latitud":-5.5205551,"longitud":-47.4790966},
{"id":536,"fecha":"2017-01-09","importe":49.4,"latitud":-5.881878,"longitud":35.2175944},
{"id":537,"fecha":"2017-11-29","importe":73.33,"latitud":28.841329,"longitud":91.016402},
{"id":538,"fecha":"2017-04-27","importe":96.74,"latitud":53.607925,"longitud":10.0852568},
{"id":539,"fecha":"2017-01-12","importe":7.7,"latitud":-8.727807,"longitud":115.5444231},
{"id":540,"fecha":"2017-02-11","importe":6.97,"latitud":31.459682,"longitud":110.11101},
{"id":541,"fecha":"2017-09-24","importe":32.65,"latitud":16.4452765,"longitud":120.5881071},
{"id":542,"fecha":"2017-06-22","importe":21.73,"latitud":-7.2630131,"longitud":112.7211714},
{"id":543,"fecha":"2017-01-30","importe":10.22,"latitud":48.574041,"longitud":39.307815},
{"id":544,"fecha":"2017-09-15","importe":99.2,"latitud":49.7052493,"longitud":4.9404055},
{"id":545,"fecha":"2017-09-03","importe":49.37,"latitud":36.9884302,"longitud":25.0406679},
{"id":546,"fecha":"2017-11-12","importe":41.33,"latitud":13.1424635,"longitud":123.7244858},
{"id":547,"fecha":"2017-06-16","importe":73.1,"latitud":29.8780031,"longitud":40.1043057},
{"id":548,"fecha":"2017-08-14","importe":30.48,"latitud":-24.7406868,"longitud":-56.0222113},
{"id":549,"fecha":"2017-01-22","importe":80.53,"latitud":"-8.0402","longitud":"111.6023"},
{"id":550,"fecha":"2017-02-11","importe":2.47,"latitud":-32.943528,"longitud":24.6549185},
{"id":551,"fecha":"2017-02-10","importe":17.87,"latitud":26.438463,"longitud":113.766805},
{"id":552,"fecha":"2017-12-06","importe":69.66,"latitud":36.645169,"longitud":117.364633},
{"id":553,"fecha":"2017-04-03","importe":96.67,"latitud":"33.15806","longitud":"69.31278"},
{"id":554,"fecha":"2017-06-16","importe":88.52,"latitud":12.3084603,"longitud":124.6357734},
{"id":555,"fecha":"2017-03-07","importe":11.99,"latitud":50.4863542,"longitud":24.280156},
{"id":556,"fecha":"2017-12-24","importe":48.39,"latitud":33.9485698,"longitud":44.9159938},
{"id":557,"fecha":"2017-03-15","importe":37.1,"latitud":33.870422,"longitud":109.940477},
{"id":558,"fecha":"2017-02-02","importe":36.9,"latitud":16.098935,"longitud":-88.8094906},
{"id":559,"fecha":"2017-12-29","importe":74.08,"latitud":34.7728913,"longitud":138.0126666},
{"id":560,"fecha":"2017-03-23","importe":84.57,"latitud":-7.2268363,"longitud":112.7286573},
{"id":561,"fecha":"2017-12-22","importe":15.09,"latitud":52.5928523,"longitud":21.458395},
{"id":562,"fecha":"2017-02-07","importe":14.51,"latitud":52.501244,"longitud":-0.766168},
{"id":563,"fecha":"2017-05-24","importe":27.52,"latitud":60.8255382,"longitud":21.3556594},
{"id":564,"fecha":"2017-04-16","importe":57.85,"latitud":52.9563074,"longitud":31.9693094},
{"id":565,"fecha":"2017-06-01","importe":51.9,"latitud":9.0707553,"longitud":-79.4816378},
{"id":566,"fecha":"2017-06-16","importe":18.52,"latitud":-2.9679629,"longitud":29.2088303},
{"id":567,"fecha":"2017-02-10","importe":89.19,"latitud":8.3141383,"longitud":124.8551784},
{"id":568,"fecha":"2017-05-12","importe":12.13,"latitud":5.4602321,"longitud":95.3900288},
{"id":569,"fecha":"2017-11-25","importe":95.09,"latitud":-7.0110378,"longitud":110.3919493},
{"id":570,"fecha":"2017-02-05","importe":39.69,"latitud":39.9338165,"longitud":69.5678329},
{"id":571,"fecha":"2017-10-29","importe":18.58,"latitud":"11.6576","longitud":"122.3851"},
{"id":572,"fecha":"2017-10-09","importe":84.65,"latitud":43.7365869,"longitud":27.2601131},
{"id":573,"fecha":"2017-07-29","importe":99.22,"latitud":43.9676803,"longitud":133.0547021},
{"id":574,"fecha":"2018-01-07","importe":68.44,"latitud":-7.3175297,"longitud":-63.9586111},
{"id":575,"fecha":"2017-04-05","importe":13.63,"latitud":46.761348,"longitud":124.23692},
{"id":576,"fecha":"2017-09-20","importe":17.8,"latitud":41.5088439,"longitud":-8.2522306},
{"id":577,"fecha":"2017-05-09","importe":67.04,"latitud":28.112525,"longitud":112.989854},
{"id":578,"fecha":"2017-07-05","importe":11.81,"latitud":24.162165,"longitud":114.945555},
{"id":579,"fecha":"2017-03-21","importe":41.3,"latitud":49.189451,"longitud":-0.804935},
{"id":580,"fecha":"2017-01-19","importe":58.48,"latitud":39.170826,"longitud":100.836184},
{"id":581,"fecha":"2017-04-08","importe":44.1,"latitud":14.5508865,"longitud":121.0075554},
{"id":582,"fecha":"2017-08-11","importe":22.92,"latitud":6.2907432,"longitud":-10.7605239},
{"id":583,"fecha":"2017-08-03","importe":91.37,"latitud":5.1079431,"longitud":8.1789301},
{"id":584,"fecha":"2017-06-18","importe":9.74,"latitud":25.570888,"longitud":111.945844},
{"id":585,"fecha":"2017-12-25","importe":74.85,"latitud":43.9071313,"longitud":125.3462629},
{"id":586,"fecha":"2017-01-13","importe":42.02,"latitud":5.0281872,"longitud":118.3157161},
{"id":587,"fecha":"2017-12-22","importe":40.42,"latitud":27.9943858,"longitud":-82.459481},
{"id":588,"fecha":"2017-08-23","importe":66.31,"latitud":-0.8406658,"longitud":-80.1596041},
{"id":589,"fecha":"2017-11-29","importe":4.83,"latitud":64.3443188,"longitud":40.8058276},
{"id":590,"fecha":"2017-07-06","importe":26.81,"latitud":13.5655838,"longitud":7.0552218},
{"id":591,"fecha":"2017-01-16","importe":58.58,"latitud":28.220406,"longitud":121.038129},
{"id":592,"fecha":"2017-10-27","importe":34.28,"latitud":49.1199699,"longitud":6.1650769},
{"id":593,"fecha":"2017-04-21","importe":61.16,"latitud":-34.7121944,"longitud":-58.6285183},
{"id":594,"fecha":"2017-04-24","importe":20.54,"latitud":3.3570113,"longitud":106.3316629},
{"id":595,"fecha":"2017-08-23","importe":27.19,"latitud":-10.1097495,"longitud":123.8020033},
{"id":596,"fecha":"2017-12-30","importe":7.49,"latitud":45.7451347,"longitud":4.8252311},
{"id":597,"fecha":"2017-01-26","importe":81.08,"latitud":49.0648694,"longitud":13.6889288},
{"id":598,"fecha":"2017-01-30","importe":5.74,"latitud":40.1628977,"longitud":-8.4270764},
{"id":599,"fecha":"2017-03-07","importe":82.98,"latitud":47.6451517,"longitud":42.0889476},
{"id":600,"fecha":"2017-01-09","importe":63.67,"latitud":31.6890813,"longitud":-4.1788953},
{"id":601,"fecha":"2017-01-20","importe":39.03,"latitud":12.151801,"longitud":9.0571089},
{"id":602,"fecha":"2017-02-28","importe":47.7,"latitud":-36.8537995,"longitud":174.7573811},
{"id":603,"fecha":"2017-03-16","importe":62.16,"latitud":41.3366888,"longitud":-8.555735},
{"id":604,"fecha":"2017-11-28","importe":91.09,"latitud":38.5261686,"longitud":141.0953438},
{"id":605,"fecha":"2017-07-08","importe":34.21,"latitud":9.1968448,"longitud":-75.8766333},
{"id":606,"fecha":"2017-09-21","importe":41.0,"latitud":35.691878,"longitud":106.04401},
{"id":607,"fecha":"2017-04-05","importe":77.08,"latitud":"51.463","longitud":"104.6425"},
{"id":608,"fecha":"2017-06-20","importe":89.67,"latitud":34.2423088,"longitud":70.8744255},
{"id":609,"fecha":"2017-12-13","importe":5.27,"latitud":49.0498305,"longitud":15.5547835},
{"id":610,"fecha":"2017-10-07","importe":58.18,"latitud":29.574103,"longitud":106.537605},
{"id":611,"fecha":"2017-06-04","importe":85.38,"latitud":49.8719709,"longitud":19.6028339},
{"id":612,"fecha":"2017-07-29","importe":90.05,"latitud":-7.974394,"longitud":112.671469},
{"id":613,"fecha":"2017-10-11","importe":7.88,"latitud":29.988244,"longitud":120.582633},
{"id":614,"fecha":"2017-01-18","importe":65.05,"latitud":17.7177253,"longitud":102.1175404},
{"id":615,"fecha":"2017-06-18","importe":47.11,"latitud":-5.0898252,"longitud":105.3241245},
{"id":616,"fecha":"2017-08-31","importe":56.63,"latitud":24.3482735,"longitud":116.6988851},
{"id":617,"fecha":"2017-02-04","importe":34.26,"latitud":-7.305958,"longitud":112.8135304},
{"id":618,"fecha":"2017-09-16","importe":8.44,"latitud":-6.1240368,"longitud":106.1009082},
{"id":619,"fecha":"2017-06-03","importe":22.19,"latitud":8.046425,"longitud":124.933677},
{"id":620,"fecha":"2017-06-07","importe":54.16,"latitud":-22.570834,"longitud":-47.4147321},
{"id":621,"fecha":"2017-10-29","importe":87.35,"latitud":"42.88719","longitud":"120.67466"},
{"id":622,"fecha":"2017-05-26","importe":26.06,"latitud":23.2252,"longitud":113.148534},
{"id":623,"fecha":"2017-06-13","importe":50.57,"latitud":37.7870331,"longitud":20.8998759},
{"id":624,"fecha":"2017-11-16","importe":78.91,"latitud":-6.9384816,"longitud":107.5187988},
{"id":625,"fecha":"2017-09-06","importe":88.94,"latitud":31.9641427,"longitud":44.9066503},
{"id":626,"fecha":"2017-04-24","importe":61.67,"latitud":-16.7698232,"longitud":31.5769572},
{"id":627,"fecha":"2017-02-12","importe":48.73,"latitud":51.1164143,"longitud":34.4870021},
{"id":628,"fecha":"2017-08-28","importe":81.17,"latitud":24.880992,"longitud":118.71899},
{"id":629,"fecha":"2017-10-11","importe":51.58,"latitud":-11.3462099,"longitud":38.411369},
{"id":630,"fecha":"2017-10-21","importe":91.32,"latitud":50.8963676,"longitud":40.5554489},
{"id":631,"fecha":"2017-07-28","importe":91.63,"latitud":-10.2735517,"longitud":-36.5536172},
{"id":632,"fecha":"2017-09-21","importe":42.05,"latitud":61.7284389,"longitud":24.800314},
{"id":633,"fecha":"2017-08-21","importe":57.47,"latitud":-26.7761609,"longitud":-51.0124989},
{"id":634,"fecha":"2017-10-05","importe":43.99,"latitud":-20.5558832,"longitud":-48.5762695},
{"id":635,"fecha":"2017-05-19","importe":28.71,"latitud":43.1406976,"longitud":20.5213617},
{"id":636,"fecha":"2017-09-28","importe":17.62,"latitud":48.4978938,"longitud":30.9365392},
{"id":637,"fecha":"2017-10-07","importe":2.37,"latitud":39.062982,"longitud":-76.8391683},
{"id":638,"fecha":"2017-05-12","importe":37.57,"latitud":40.7408774,"longitud":24.5772111},
{"id":639,"fecha":"2017-04-25","importe":72.23,"latitud":45.3095119,"longitud":20.7261064},
{"id":640,"fecha":"2017-05-08","importe":42.25,"latitud":-3.5098478,"longitud":-44.7381432},
{"id":641,"fecha":"2017-07-02","importe":44.28,"latitud":30.2638032,"longitud":102.8054753},
{"id":642,"fecha":"2017-12-08","importe":14.24,"latitud":36.650038,"longitud":101.766228},
{"id":643,"fecha":"2017-01-18","importe":4.65,"latitud":38.822691,"longitud":114.35056},
{"id":644,"fecha":"2017-12-28","importe":87.37,"latitud":"34.3296","longitud":"71.17852"},
{"id":645,"fecha":"2017-06-11","importe":1.02,"latitud":42.3521585,"longitud":44.6875131},
{"id":646,"fecha":"2017-12-19","importe":50.14,"latitud":31.3291027,"longitud":31.7132981},
{"id":647,"fecha":"2017-01-19","importe":94.69,"latitud":40.7544003,"longitud":-73.9801334},
{"id":648,"fecha":"2017-01-07","importe":10.01,"latitud":"32.90871","longitud":"35.63198"},
{"id":649,"fecha":"2017-08-06","importe":71.23,"latitud":-20.4200737,"longitud":57.5490299},
{"id":650,"fecha":"2017-02-02","importe":47.02,"latitud":56.8881364,"longitud":65.8835448},
{"id":651,"fecha":"2017-06-20","importe":64.99,"latitud":-18.3181877,"longitud":47.1118527},
{"id":652,"fecha":"2017-06-01","importe":62.4,"latitud":5.1443561,"longitud":10.5239867},
{"id":653,"fecha":"2017-06-21","importe":50.2,"latitud":41.2973128,"longitud":-8.0715693},
{"id":654,"fecha":"2017-09-06","importe":15.68,"latitud":-17.7357805,"longitud":-65.1922148},
{"id":655,"fecha":"2017-05-20","importe":37.5,"latitud":26.461076,"longitud":111.592142},
{"id":656,"fecha":"2017-04-30","importe":85.55,"latitud":-6.3929812,"longitud":-79.8226708},
{"id":657,"fecha":"2017-12-17","importe":19.09,"latitud":"8.41667","longitud":"-71.13333"},
{"id":658,"fecha":"2017-10-08","importe":17.99,"latitud":-27.4281921,"longitud":-58.9793786},
{"id":659,"fecha":"2017-02-23","importe":46.78,"latitud":53.2724538,"longitud":-6.1215213},
{"id":660,"fecha":"2017-08-06","importe":15.65,"latitud":-7.594182,"longitud":-78.466042},
{"id":661,"fecha":"2017-06-12","importe":70.49,"latitud":47.17532,"longitud":-1.6901492},
{"id":662,"fecha":"2017-04-29","importe":9.4,"latitud":-28.7840394,"longitud":-51.6077771},
{"id":663,"fecha":"2017-07-13","importe":79.55,"latitud":45.333333,"longitud":96.65},
{"id":664,"fecha":"2017-11-14","importe":67.7,"latitud":14.3679657,"longitud":121.0504535},
{"id":665,"fecha":"2017-08-16","importe":94.49,"latitud":-12.23146,"longitud":-75.164368},
{"id":666,"fecha":"2017-02-18","importe":18.21,"latitud":"-8.5988","longitud":"115.2401"},
{"id":667,"fecha":"2017-07-23","importe":12.9,"latitud":22.826877,"longitud":107.840624},
{"id":668,"fecha":"2017-09-17","importe":21.1,"latitud":44.0086458,"longitud":22.9355752},
{"id":669,"fecha":"2017-02-10","importe":17.68,"latitud":-6.7347875,"longitud":111.4648515},
{"id":670,"fecha":"2017-01-19","importe":80.66,"latitud":"47.6","longitud":"39.7"},
{"id":671,"fecha":"2017-01-30","importe":70.09,"latitud":18.5049101,"longitud":-69.8296974},
{"id":672,"fecha":"2017-12-08","importe":67.4,"latitud":43.4945737,"longitud":5.8978018},
{"id":673,"fecha":"2017-09-30","importe":47.81,"latitud":49.4744011,"longitud":19.6404278},
{"id":674,"fecha":"2017-11-19","importe":28.39,"latitud":45.0058742,"longitud":39.06949},
{"id":675,"fecha":"2017-02-08","importe":70.76,"latitud":19.453837,"longitud":-99.1227878},
{"id":676,"fecha":"2017-09-05","importe":42.03,"latitud":"-8.3739","longitud":"124.4172"},
{"id":677,"fecha":"2017-01-14","importe":8.54,"latitud":32.417346,"longitud":105.238901},
{"id":678,"fecha":"2017-11-19","importe":76.72,"latitud":31.5126804,"longitud":120.2947416},
{"id":679,"fecha":"2017-11-04","importe":85.75,"latitud":35.4709893,"longitud":-5.4057358},
{"id":680,"fecha":"2017-02-18","importe":29.93,"latitud":9.49858,"longitud":50.8105261},
{"id":681,"fecha":"2017-08-05","importe":97.24,"latitud":11.9050612,"longitud":-86.0962783},
{"id":682,"fecha":"2017-04-01","importe":45.65,"latitud":-43.2596246,"longitud":-65.3580411},
{"id":683,"fecha":"2017-11-11","importe":8.41,"latitud":-23.6742228,"longitud":-46.5436003},
{"id":684,"fecha":"2017-04-06","importe":3.8,"latitud":38.6093672,"longitud":-8.887687},
{"id":685,"fecha":"2017-07-08","importe":44.37,"latitud":45.3770527,"longitud":-73.579509},
{"id":686,"fecha":"2017-11-07","importe":5.34,"latitud":"5.84671","longitud":"6.15257"},
{"id":687,"fecha":"2017-01-14","importe":15.9,"latitud":13.2570942,"longitud":-61.125756},
{"id":688,"fecha":"2017-11-13","importe":69.07,"latitud":41.8214682,"longitud":-7.4930317},
{"id":689,"fecha":"2017-11-21","importe":33.47,"latitud":59.9251489,"longitud":30.317148},
{"id":690,"fecha":"2017-04-03","importe":41.62,"latitud":31.882062,"longitud":116.243408},
{"id":691,"fecha":"2017-06-30","importe":38.36,"latitud":37.78,"longitud":-122.42},
{"id":692,"fecha":"2017-05-03","importe":10.04,"latitud":49.2199465,"longitud":14.419863},
{"id":693,"fecha":"2017-02-24","importe":71.38,"latitud":-8.237963,"longitud":112.5513677},
{"id":694,"fecha":"2017-06-12","importe":3.57,"latitud":47.1601577,"longitud":40.224989},
{"id":695,"fecha":"2017-11-24","importe":95.26,"latitud":13.9192331,"longitud":121.4256292},
{"id":696,"fecha":"2017-12-29","importe":97.92,"latitud":-6.956164,"longitud":106.7714},
{"id":697,"fecha":"2017-08-28","importe":85.2,"latitud":10.8825337,"longitud":124.9871635},
{"id":698,"fecha":"2017-02-04","importe":45.72,"latitud":7.8570335,"longitud":36.5823944},
{"id":699,"fecha":"2017-10-23","importe":71.79,"latitud":22.9550072,"longitud":113.0126011},
{"id":700,"fecha":"2017-10-02","importe":83.56,"latitud":45.8359543,"longitud":5.0634248},
{"id":701,"fecha":"2017-07-26","importe":98.92,"latitud":-7.1260248,"longitud":107.8909697},
{"id":702,"fecha":"2017-02-11","importe":57.46,"latitud":50.9532135,"longitud":28.6457544},
{"id":703,"fecha":"2017-02-10","importe":65.1,"latitud":21.3325846,"longitud":105.7233814},
{"id":704,"fecha":"2017-03-11","importe":47.04,"latitud":-10.3327498,"longitud":-36.8788381},
{"id":705,"fecha":"2017-12-11","importe":99.06,"latitud":10.0304186,"longitud":123.5161366},
{"id":706,"fecha":"2017-10-11","importe":81.14,"latitud":36.9549975,"longitud":65.1254488},
{"id":707,"fecha":"2017-05-04","importe":99.15,"latitud":29.956858,"longitud":107.209965},
{"id":708,"fecha":"2017-12-06","importe":18.6,"latitud":64.7000006,"longitud":43.3910351},
{"id":709,"fecha":"2017-03-13","importe":90.47,"latitud":39.3035567,"longitud":-94.7195096},
{"id":710,"fecha":"2017-01-17","importe":47.45,"latitud":5.2351338,"longitud":-75.8346203},
{"id":711,"fecha":"2017-08-13","importe":11.77,"latitud":34.7173896,"longitud":135.3372233},
{"id":712,"fecha":"2017-05-01","importe":49.98,"latitud":0.3987229,"longitud":32.4792744},
{"id":713,"fecha":"2017-02-13","importe":73.79,"latitud":30.973935,"longitud":120.639958},
{"id":714,"fecha":"2017-11-23","importe":89.57,"latitud":29.724589,"longitud":116.245433},
{"id":715,"fecha":"2017-08-26","importe":73.47,"latitud":42.009313,"longitud":20.9713986},
{"id":716,"fecha":"2017-07-12","importe":13.12,"latitud":25.0230538,"longitud":102.7184597},
{"id":717,"fecha":"2017-10-22","importe":88.99,"latitud":33.86,"longitud":115.484454},
{"id":718,"fecha":"2017-11-05","importe":67.38,"latitud":45.6628665,"longitud":-73.8134978},
{"id":719,"fecha":"2017-02-23","importe":75.35,"latitud":55.8024235,"longitud":37.4219388},
{"id":720,"fecha":"2017-04-01","importe":34.2,"latitud":34.144801,"longitud":-118.2563169},
{"id":721,"fecha":"2017-06-15","importe":77.71,"latitud":6.873999,"longitud":7.6182095},
{"id":722,"fecha":"2017-02-17","importe":83.87,"latitud":61.259673,"longitud":25.4873452},
{"id":723,"fecha":"2017-11-08","importe":72.83,"latitud":6.057265,"longitud":-75.185598},
{"id":724,"fecha":"2017-08-04","importe":26.54,"latitud":-26.1827713,"longitud":-56.3712327},
{"id":725,"fecha":"2017-04-27","importe":20.69,"latitud":36.5995041,"longitud":117.0361834},
{"id":726,"fecha":"2017-11-29","importe":39.78,"latitud":51.1501056,"longitud":21.0487361},
{"id":727,"fecha":"2017-08-08","importe":57.0,"latitud":34.2307023,"longitud":37.2383506},
{"id":728,"fecha":"2017-03-31","importe":2.88,"latitud":36.3384589,"longitud":25.4333251},
{"id":729,"fecha":"2017-12-01","importe":41.15,"latitud":13.0100514,"longitud":-61.2306446},
{"id":730,"fecha":"2017-08-17","importe":44.76,"latitud":29.772645,"longitud":118.703307},
{"id":731,"fecha":"2017-12-11","importe":37.72,"latitud":"9.17008","longitud":"118.1872"},
{"id":732,"fecha":"2017-06-05","importe":71.81,"latitud":32.047243,"longitud":44.3709408},
{"id":733,"fecha":"2017-10-14","importe":54.08,"latitud":12.1564921,"longitud":-86.3528838},
{"id":734,"fecha":"2017-11-26","importe":61.42,"latitud":-7.7798092,"longitud":110.3562018},
{"id":735,"fecha":"2017-05-22","importe":83.09,"latitud":-7.2608514,"longitud":111.7793523},
{"id":736,"fecha":"2017-08-06","importe":14.3,"latitud":22.543096,"longitud":114.057865},
{"id":737,"fecha":"2017-04-20","importe":15.28,"latitud":-24.5113085,"longitud":-48.8447394},
{"id":738,"fecha":"2017-10-15","importe":17.89,"latitud":50.8493216,"longitud":5.7114171},
{"id":739,"fecha":"2017-07-05","importe":50.65,"latitud":-10.789321,"longitud":-65.3301049},
{"id":740,"fecha":"2017-01-31","importe":54.23,"latitud":49.8053451,"longitud":6.4041782},
{"id":741,"fecha":"2017-11-13","importe":59.78,"latitud":-8.6635365,"longitud":118.8480284},
{"id":742,"fecha":"2017-09-20","importe":13.34,"latitud":-6.761747,"longitud":111.486801},
{"id":743,"fecha":"2017-06-06","importe":6.35,"latitud":37.0514525,"longitud":25.4982396},
{"id":744,"fecha":"2017-05-29","importe":12.38,"latitud":16.2656641,"longitud":120.4139777},
{"id":745,"fecha":"2017-10-11","importe":92.89,"latitud":50.747233,"longitud":25.325383},
{"id":746,"fecha":"2017-10-22","importe":62.29,"latitud":5.0378453,"longitud":21.2099808},
{"id":747,"fecha":"2017-08-07","importe":34.98,"latitud":50.6881144,"longitud":32.3370869},
{"id":748,"fecha":"2017-05-23","importe":32.96,"latitud":37.0507794,"longitud":22.0083727},
{"id":749,"fecha":"2017-06-25","importe":36.0,"latitud":4.5778968,"longitud":13.3500652},
{"id":750,"fecha":"2017-07-19","importe":78.35,"latitud":59.3887625,"longitud":30.2867644},
{"id":751,"fecha":"2017-05-11","importe":46.13,"latitud":6.9894019,"longitud":79.8933077},
{"id":752,"fecha":"2017-07-13","importe":24.05,"latitud":10.0620494,"longitud":123.444424},
{"id":753,"fecha":"2018-01-06","importe":99.2,"latitud":40.076762,"longitud":113.300129},
{"id":754,"fecha":"2017-01-03","importe":43.89,"latitud":61.0962323,"longitud":28.8780526},
{"id":755,"fecha":"2017-08-12","importe":99.62,"latitud":15.0140045,"longitud":-87.931855},
{"id":756,"fecha":"2017-09-04","importe":88.85,"latitud":30.453667,"longitud":114.872199},
{"id":757,"fecha":"2017-08-02","importe":44.59,"latitud":35.5445563,"longitud":128.4922143},
{"id":758,"fecha":"2017-04-04","importe":59.37,"latitud":42.2531168,"longitud":143.3092266},
{"id":759,"fecha":"2017-04-16","importe":74.03,"latitud":32.388662,"longitud":119.39402},
{"id":760,"fecha":"2017-07-16","importe":81.87,"latitud":41.6089452,"longitud":20.006257},
{"id":761,"fecha":"2017-08-03","importe":58.98,"latitud":48.0158729,"longitud":40.8393808},
{"id":762,"fecha":"2017-04-09","importe":20.3,"latitud":49.3559892,"longitud":2.7877074},
{"id":763,"fecha":"2017-08-01","importe":89.5,"latitud":42.0040445,"longitud":21.3760767},
{"id":764,"fecha":"2017-09-05","importe":94.14,"latitud":31.191643,"longitud":121.389262},
{"id":765,"fecha":"2017-11-12","importe":60.67,"latitud":33.9485698,"longitud":44.9159938},
{"id":766,"fecha":"2017-12-19","importe":74.03,"latitud":3.0708714,"longitud":99.4172728},
{"id":767,"fecha":"2017-07-23","importe":96.54,"latitud":31.325748,"longitud":113.393516},
{"id":768,"fecha":"2017-03-15","importe":85.4,"latitud":-23.6845941,"longitud":27.6808712},
{"id":769,"fecha":"2018-01-04","importe":94.35,"latitud":57.817445,"longitud":14.2716031},
{"id":770,"fecha":"2017-01-18","importe":23.19,"latitud":38.7637108,"longitud":-9.327504},
{"id":771,"fecha":"2017-07-24","importe":12.65,"latitud":20.690696,"longitud":101.9861694},
{"id":772,"fecha":"2017-07-11","importe":80.44,"latitud":36.956333,"longitud":45.3878348},
{"id":773,"fecha":"2017-12-29","importe":39.73,"latitud":37.1347927,"longitud":-8.5351366},
{"id":774,"fecha":"2017-11-06","importe":2.81,"latitud":26.2198633,"longitud":50.5329678},
{"id":775,"fecha":"2017-04-23","importe":29.29,"latitud":9.4362547,"longitud":123.1893864},
{"id":776,"fecha":"2017-07-13","importe":84.31,"latitud":44.988449,"longitud":126.049702},
{"id":777,"fecha":"2017-07-21","importe":39.26,"latitud":39.179865,"longitud":117.207298},
{"id":778,"fecha":"2017-01-08","importe":62.71,"latitud":41.0084382,"longitud":70.074132},
{"id":779,"fecha":"2017-01-06","importe":43.33,"latitud":-23.2664186,"longitud":-51.0527244},
{"id":780,"fecha":"2017-02-12","importe":25.71,"latitud":49.9248455,"longitud":116.8425182},
{"id":781,"fecha":"2017-06-30","importe":24.9,"latitud":6.0343516,"longitud":124.5217429},
{"id":782,"fecha":"2017-10-06","importe":25.39,"latitud":32.0631839,"longitud":-102.0375564},
{"id":783,"fecha":"2017-03-01","importe":82.3,"latitud":20.5072923,"longitud":-13.052978},
{"id":784,"fecha":"2017-07-21","importe":79.32,"latitud":18.2051988,"longitud":-71.0924706},
{"id":785,"fecha":"2017-11-28","importe":37.25,"latitud":7.813374,"longitud":123.362634},
{"id":786,"fecha":"2017-02-06","importe":82.87,"latitud":10.7224254,"longitud":122.2618013},
{"id":787,"fecha":"2017-09-05","importe":66.92,"latitud":55.7452926,"longitud":24.3713362},
{"id":788,"fecha":"2017-10-04","importe":5.15,"latitud":60.3198565,"longitud":23.8212698},
{"id":789,"fecha":"2017-02-14","importe":43.56,"latitud":48.8282801,"longitud":2.7011678},
{"id":790,"fecha":"2017-12-28","importe":23.11,"latitud":27.7303815,"longitud":112.0069982},
{"id":791,"fecha":"2017-01-14","importe":16.69,"latitud":"9.2207","longitud":"122.9053"},
{"id":792,"fecha":"2017-01-20","importe":21.88,"latitud":"35.17835","longitud":"67.68758"},
{"id":793,"fecha":"2017-04-29","importe":17.14,"latitud":28.2706055,"longitud":69.0006638},
{"id":794,"fecha":"2017-01-08","importe":79.75,"latitud":3.1523104,"longitud":101.7178316},
{"id":795,"fecha":"2017-11-19","importe":37.32,"latitud":32.929568,"longitud":119.860856},
{"id":796,"fecha":"2017-04-11","importe":55.71,"latitud":20.023731,"longitud":110.580002},
{"id":797,"fecha":"2017-09-14","importe":52.36,"latitud":55.675114,"longitud":12.568064},
{"id":798,"fecha":"2017-07-05","importe":61.59,"latitud":-19.2236514,"longitud":-45.0056921},
{"id":799,"fecha":"2017-06-18","importe":91.75,"latitud":32.0169411,"longitud":36.0494112},
{"id":800,"fecha":"2017-10-17","importe":36.63,"latitud":19.543266,"longitud":109.103413},
{"id":801,"fecha":"2017-08-29","importe":17.61,"latitud":48.9371252,"longitud":14.6292015},
{"id":802,"fecha":"2017-04-07","importe":48.16,"latitud":14.9247834,"longitud":-85.692279},
{"id":803,"fecha":"2017-05-27","importe":71.47,"latitud":41.6569962,"longitud":-8.4356533},
{"id":804,"fecha":"2017-05-25","importe":36.2,"latitud":-6.2835218,"longitud":106.7112933},
{"id":805,"fecha":"2017-02-22","importe":8.76,"latitud":3.9201154,"longitud":96.7065914},
{"id":806,"fecha":"2017-03-26","importe":44.22,"latitud":33.052837,"longitud":112.55743},
{"id":807,"fecha":"2017-02-02","importe":91.55,"latitud":45.2051732,"longitud":20.1323619},
{"id":808,"fecha":"2017-05-23","importe":86.21,"latitud":42.41231,"longitud":47.1792159},
{"id":809,"fecha":"2017-04-04","importe":52.88,"latitud":"-8.4699","longitud":"121.2227"},
{"id":810,"fecha":"2017-08-07","importe":59.78,"latitud":36.706962,"longitud":119.161748},
{"id":811,"fecha":"2017-02-06","importe":47.73,"latitud":7.755354,"longitud":-76.6554309},
{"id":812,"fecha":"2017-02-02","importe":28.08,"latitud":"-7.2117","longitud":"107.9114"},
{"id":813,"fecha":"2018-01-01","importe":94.2,"latitud":31.7338222,"longitud":118.8719394},
{"id":814,"fecha":"2017-03-12","importe":61.02,"latitud":10.8991156,"longitud":124.8507146},
{"id":815,"fecha":"2017-10-12","importe":8.84,"latitud":49.8232218,"longitud":21.3934539},
{"id":816,"fecha":"2017-08-10","importe":90.0,"latitud":-31.4534131,"longitud":-64.2089174},
{"id":817,"fecha":"2017-07-25","importe":8.75,"latitud":35.819227,"longitud":108.019549},
{"id":818,"fecha":"2017-12-26","importe":98.78,"latitud":25.6775595,"longitud":-100.2596935},
{"id":819,"fecha":"2017-02-05","importe":53.47,"latitud":59.24607,"longitud":17.8231225},
{"id":820,"fecha":"2017-03-14","importe":59.21,"latitud":"33.38278","longitud":"66.27233"},
{"id":821,"fecha":"2017-02-23","importe":25.12,"latitud":-8.0693036,"longitud":113.7275817},
{"id":822,"fecha":"2017-03-22","importe":55.96,"latitud":27.9961123,"longitud":-82.4290869},
{"id":823,"fecha":"2017-06-04","importe":90.86,"latitud":59.6535297,"longitud":18.3648033},
{"id":824,"fecha":"2018-01-06","importe":3.65,"latitud":49.0390391,"longitud":27.2251895},
{"id":825,"fecha":"2017-03-25","importe":3.25,"latitud":22.558237,"longitud":113.95494},
{"id":826,"fecha":"2017-08-31","importe":84.86,"latitud":50.182978,"longitud":12.5505533},
{"id":827,"fecha":"2017-12-04","importe":8.91,"latitud":31.1707547,"longitud":121.3963702},
{"id":828,"fecha":"2017-07-02","importe":39.89,"latitud":46.6824698,"longitud":15.6512293},
{"id":829,"fecha":"2017-12-13","importe":37.62,"latitud":-17.8832695,"longitud":-62.941187},
{"id":830,"fecha":"2017-04-23","importe":87.39,"latitud":36.123561,"longitud":138.1062209},
{"id":831,"fecha":"2017-04-24","importe":37.83,"latitud":29.995762,"longitud":120.586109},
{"id":832,"fecha":"2017-02-10","importe":43.69,"latitud":45.590443,"longitud":5.8930389},
{"id":833,"fecha":"2017-09-19","importe":20.38,"latitud":40.546361,"longitud":117.659499},
{"id":834,"fecha":"2017-07-25","importe":63.89,"latitud":53.8249945,"longitud":22.3619798},
{"id":835,"fecha":"2017-05-02","importe":11.92,"latitud":6.3833462,"longitud":-75.5858886},
{"id":836,"fecha":"2017-03-17","importe":78.83,"latitud":21.5500232,"longitud":-77.2692503},
{"id":837,"fecha":"2017-09-16","importe":65.55,"latitud":"-8.3257","longitud":"123.1505"},
{"id":838,"fecha":"2017-07-08","importe":53.97,"latitud":1.3483826,"longitud":125.0498292},
{"id":839,"fecha":"2017-12-23","importe":20.92,"latitud":29.948677,"longitud":109.088095},
{"id":840,"fecha":"2017-04-20","importe":36.11,"latitud":-6.8132152,"longitud":108.5919461},
{"id":841,"fecha":"2017-01-02","importe":39.23,"latitud":-7.8748176,"longitud":110.3255365},
{"id":842,"fecha":"2017-12-17","importe":45.29,"latitud":34.253164,"longitud":117.251076},
{"id":843,"fecha":"2017-06-09","importe":89.69,"latitud":-17.3256545,"longitud":49.36706},
{"id":844,"fecha":"2017-02-22","importe":61.08,"latitud":35.1183378,"longitud":69.2341133},
{"id":845,"fecha":"2017-01-05","importe":14.47,"latitud":-7.2527403,"longitud":107.8774664},
{"id":846,"fecha":"2017-12-26","importe":24.57,"latitud":49.1809643,"longitud":13.5548562},
{"id":847,"fecha":"2017-03-07","importe":68.43,"latitud":54.141067,"longitud":25.0156941},
{"id":848,"fecha":"2017-07-05","importe":25.67,"latitud":-6.4713068,"longitud":108.4572788},
{"id":849,"fecha":"2017-03-21","importe":15.48,"latitud":41.4242264,"longitud":-8.6722459},
{"id":850,"fecha":"2017-06-24","importe":11.95,"latitud":49.6769375,"longitud":6.1338438},
{"id":851,"fecha":"2017-03-20","importe":34.84,"latitud":52.6269375,"longitud":16.4463703},
{"id":852,"fecha":"2017-06-15","importe":64.93,"latitud":12.7430244,"longitud":-3.8553507},
{"id":853,"fecha":"2017-01-12","importe":30.24,"latitud":29.956858,"longitud":107.209965},
{"id":854,"fecha":"2017-07-14","importe":69.06,"latitud":57.644628,"longitud":11.9382097},
{"id":855,"fecha":"2017-05-04","importe":93.03,"latitud":-8.3501717,"longitud":117.9483319},
{"id":856,"fecha":"2017-08-29","importe":38.86,"latitud":-34.5244257,"longitud":-56.3908165},
{"id":857,"fecha":"2017-08-07","importe":92.16,"latitud":47.086965,"longitud":81.6315231},
{"id":858,"fecha":"2017-03-02","importe":57.99,"latitud":8.6962086,"longitud":-82.4969331},
{"id":859,"fecha":"2017-01-04","importe":85.61,"latitud":7.9601788,"longitud":-6.6745042},
{"id":860,"fecha":"2017-11-04","importe":75.23,"latitud":-23.7082237,"longitud":-46.415128},
{"id":861,"fecha":"2017-12-08","importe":69.31,"latitud":48.466592,"longitud":124.8828701},
{"id":862,"fecha":"2017-10-05","importe":94.51,"latitud":-8.3027766,"longitud":113.5222556},
{"id":863,"fecha":"2017-02-16","importe":72.17,"latitud":"41.87148","longitud":"22.28961"},
{"id":864,"fecha":"2017-10-30","importe":32.08,"latitud":52.8669497,"longitud":24.8920219},
{"id":865,"fecha":"2017-11-16","importe":27.87,"latitud":26.042443,"longitud":110.6527},
{"id":866,"fecha":"2017-12-13","importe":44.37,"latitud":49.9114346,"longitud":17.6628187},
{"id":867,"fecha":"2017-11-06","importe":21.54,"latitud":-3.9052525,"longitud":32.9381321},
{"id":868,"fecha":"2018-01-03","importe":47.91,"latitud":33.4658131,"longitud":-112.0244867},
{"id":869,"fecha":"2017-05-06","importe":99.98,"latitud":-7.0725035,"longitud":107.6777669},
{"id":870,"fecha":"2017-11-07","importe":34.93,"latitud":22.2092,"longitud":113.296467},
{"id":871,"fecha":"2017-07-07","importe":54.07,"latitud":29.584292,"longitud":111.380014},
{"id":872,"fecha":"2017-06-07","importe":38.02,"latitud":32.0544346,"longitud":73.6856659},
{"id":873,"fecha":"2017-05-26","importe":21.72,"latitud":-11.7602273,"longitud":27.2499749},
{"id":874,"fecha":"2017-12-01","importe":90.44,"latitud":26.5015552,"longitud":67.9731001},
{"id":875,"fecha":"2017-08-24","importe":80.31,"latitud":52.3376849,"longitud":5.6072982},
{"id":876,"fecha":"2017-04-06","importe":11.05,"latitud":"-8.2794","longitud":"113.4073"},
{"id":877,"fecha":"2017-03-23","importe":89.03,"latitud":35.0150933,"longitud":33.7405967},
{"id":878,"fecha":"2017-08-12","importe":68.74,"latitud":11.0126649,"longitud":122.6579982},
{"id":879,"fecha":"2017-11-11","importe":64.52,"latitud":45.4399116,"longitud":-73.2875277},
{"id":880,"fecha":"2017-06-05","importe":61.68,"latitud":14.9806953,"longitud":120.5779616},
{"id":881,"fecha":"2017-10-07","importe":78.68,"latitud":62.1588835,"longitud":22.2669813},
{"id":882,"fecha":"2017-12-23","importe":67.1,"latitud":-6.939897,"longitud":106.9506175},
{"id":883,"fecha":"2017-10-20","importe":66.72,"latitud":20.1276773,"longitud":105.6691136},
{"id":884,"fecha":"2017-02-19","importe":20.55,"latitud":-27.4893816,"longitud":-58.8495697},
{"id":885,"fecha":"2017-07-13","importe":32.47,"latitud":19.0748796,"longitud":105.1726816},
{"id":886,"fecha":"2017-05-19","importe":91.78,"latitud":15.6122706,"longitud":-86.0784459},
{"id":887,"fecha":"2017-05-15","importe":22.99,"latitud":37.2746124,"longitud":9.8627243},
{"id":888,"fecha":"2017-02-05","importe":39.29,"latitud":44.8119628,"longitud":15.8685645},
{"id":889,"fecha":"2017-12-10","importe":1.67,"latitud":59.4005705,"longitud":16.4401504},
{"id":890,"fecha":"2017-10-14","importe":99.32,"latitud":1.05,"longitud":118.8},
{"id":891,"fecha":"2017-04-20","importe":72.26,"latitud":-32.7248333,"longitud":25.5799503},
{"id":892,"fecha":"2017-09-12","importe":23.94,"latitud":9.9152376,"longitud":123.9321966},
{"id":893,"fecha":"2017-08-09","importe":42.3,"latitud":"16.1525","longitud":"36.2032"},
{"id":894,"fecha":"2017-02-08","importe":70.18,"latitud":45.8404226,"longitud":39.023038},
{"id":895,"fecha":"2017-10-14","importe":64.68,"latitud":32.6947983,"longitud":-17.0982397},
{"id":896,"fecha":"2017-06-21","importe":88.95,"latitud":"55.86667","longitud":"37.5"},
{"id":897,"fecha":"2017-07-23","importe":75.79,"latitud":35.2316863,"longitud":60.6401218},
{"id":898,"fecha":"2017-08-12","importe":41.8,"latitud":39.3704516,"longitud":22.9827384},
{"id":899,"fecha":"2017-11-16","importe":47.64,"latitud":38.7,"longitud":21.466667},
{"id":900,"fecha":"2017-06-02","importe":18.66,"latitud":13.8758656,"longitud":-89.3582599},
{"id":901,"fecha":"2017-01-07","importe":12.59,"latitud":7.0063409,"longitud":-7.4868283},
{"id":902,"fecha":"2017-09-10","importe":92.76,"latitud":-34.4489078,"longitud":-58.7992473},
{"id":903,"fecha":"2017-08-21","importe":34.16,"latitud":35.3078775,"longitud":136.6447089},
{"id":904,"fecha":"2017-02-04","importe":42.29,"latitud":30.2638032,"longitud":102.8054753},
{"id":905,"fecha":"2017-07-30","importe":67.82,"latitud":34.199479,"longitud":119.578364},
{"id":906,"fecha":"2017-08-20","importe":9.89,"latitud":-8.4573045,"longitud":117.185294},
{"id":907,"fecha":"2017-01-30","importe":37.46,"latitud":12.5092044,"longitud":-70.0086306},
{"id":908,"fecha":"2017-03-30","importe":57.68,"latitud":3.4851908,"longitud":-76.5112471},
{"id":909,"fecha":"2017-12-15","importe":10.8,"latitud":-8.793392,"longitud":121.9330894},
{"id":910,"fecha":"2017-02-23","importe":31.4,"latitud":25.6279123,"longitud":88.6331758},
{"id":911,"fecha":"2017-09-22","importe":15.78,"latitud":58.7075528,"longitud":14.1266322},
{"id":912,"fecha":"2018-01-06","importe":10.88,"latitud":-27.5918875,"longitud":-48.4939886},
{"id":913,"fecha":"2017-03-30","importe":82.99,"latitud":37.504829,"longitud":115.720864},
{"id":914,"fecha":"2017-08-04","importe":43.1,"latitud":54.6041651,"longitud":24.0304672},
{"id":915,"fecha":"2017-08-27","importe":1.02,"latitud":30.8346,"longitud":117.552738},
{"id":916,"fecha":"2017-11-09","importe":28.91,"latitud":0.120863,"longitud":117.4800445},
{"id":917,"fecha":"2017-09-17","importe":25.12,"latitud":59.1178265,"longitud":18.018585},
{"id":918,"fecha":"2018-01-09","importe":54.62,"latitud":-23.8431563,"longitud":-47.7243139},
{"id":919,"fecha":"2017-12-21","importe":14.31,"latitud":46.3903028,"longitud":16.6287495},
{"id":920,"fecha":"2017-11-27","importe":49.74,"latitud":45.7718709,"longitud":126.6701902},
{"id":921,"fecha":"2017-12-06","importe":86.3,"latitud":50.6286293,"longitud":13.8637153},
{"id":922,"fecha":"2017-08-05","importe":50.17,"latitud":31.270307,"longitud":121.537613},
{"id":923,"fecha":"2017-04-18","importe":61.18,"latitud":45.8131644,"longitud":14.3171319},
{"id":924,"fecha":"2017-05-11","importe":96.29,"latitud":47.5202786,"longitud":17.5142121},
{"id":925,"fecha":"2017-01-28","importe":17.71,"latitud":49.8474143,"longitud":19.2057487},
{"id":926,"fecha":"2017-12-07","importe":42.78,"latitud":37.5568153,"longitud":139.747389},
{"id":927,"fecha":"2017-05-30","importe":25.22,"latitud":44.256487,"longitud":-76.033479},
{"id":928,"fecha":"2017-11-15","importe":35.31,"latitud":27.336513,"longitud":118.083288},
{"id":929,"fecha":"2017-03-31","importe":69.71,"latitud":-8.269535,"longitud":122.8950755},
{"id":930,"fecha":"2017-06-04","importe":2.62,"latitud":"48.48333","longitud":"124.48333"},
{"id":931,"fecha":"2017-11-10","importe":55.37,"latitud":-6.6183695,"longitud":107.7251314},
{"id":932,"fecha":"2017-05-26","importe":47.72,"latitud":7.8400507,"longitud":122.4823401},
{"id":933,"fecha":"2017-04-15","importe":8.83,"latitud":-23.668163,"longitud":-46.4617086},
{"id":934,"fecha":"2017-12-15","importe":32.8,"latitud":16.5,"longitud":121.2666702},
{"id":935,"fecha":"2017-10-26","importe":49.57,"latitud":0.6877958,"longitud":122.9775675},
{"id":936,"fecha":"2017-06-13","importe":48.61,"latitud":53.2911347,"longitud":-6.3506335},
{"id":937,"fecha":"2017-07-11","importe":45.17,"latitud":49.0261841,"longitud":1.1518478},
{"id":938,"fecha":"2017-10-19","importe":98.94,"latitud":14.2226543,"longitud":121.4213333},
{"id":939,"fecha":"2018-01-05","importe":81.03,"latitud":13.7866222,"longitud":120.9767873},
{"id":940,"fecha":"2017-12-01","importe":96.9,"latitud":17.0405373,"longitud":99.0571089},
{"id":941,"fecha":"2017-07-17","importe":80.79,"latitud":55.0868852,"longitud":82.6436105},
{"id":942,"fecha":"2017-09-02","importe":81.97,"latitud":-6.7751995,"longitud":111.3515736},
{"id":943,"fecha":"2017-08-25","importe":24.22,"latitud":"-8.3661","longitud":"114.6568"},
{"id":944,"fecha":"2017-02-27","importe":68.61,"latitud":53.149977,"longitud":140.6634789},
{"id":945,"fecha":"2017-08-27","importe":13.04,"latitud":55.3500609,"longitud":61.3466506},
{"id":946,"fecha":"2017-10-18","importe":83.52,"latitud":48.8357169,"longitud":2.2754517},
{"id":947,"fecha":"2017-01-20","importe":34.43,"latitud":53.3992318,"longitud":-1.7622544},
{"id":948,"fecha":"2017-01-21","importe":3.78,"latitud":-8.197451,"longitud":112.6079459},
{"id":949,"fecha":"2017-07-04","importe":25.1,"latitud":50.7798051,"longitud":15.8470487},
{"id":950,"fecha":"2017-08-06","importe":29.21,"latitud":52.6244001,"longitud":20.3835279},
{"id":951,"fecha":"2017-05-12","importe":92.06,"latitud":-34.804675,"longitud":-58.2532508},
{"id":952,"fecha":"2017-11-07","importe":19.73,"latitud":59.9546982,"longitud":10.7105679},
{"id":953,"fecha":"2017-06-08","importe":97.49,"latitud":35.8939566,"longitud":117.9249002},
{"id":954,"fecha":"2017-08-27","importe":53.05,"latitud":-3.8506762,"longitud":119.5281714},
{"id":955,"fecha":"2017-08-30","importe":56.7,"latitud":48.4242028,"longitud":142.0863655},
{"id":956,"fecha":"2017-07-30","importe":36.51,"latitud":37.1845893,"longitud":136.9002781},
{"id":957,"fecha":"2017-05-22","importe":1.37,"latitud":-13.7968333,"longitud":-39.465738},
{"id":958,"fecha":"2017-12-15","importe":5.42,"latitud":7.3275252,"longitud":122.8946032},
{"id":959,"fecha":"2017-08-12","importe":3.7,"latitud":50.2235249,"longitud":20.046495},
{"id":960,"fecha":"2017-11-06","importe":49.52,"latitud":54.5071478,"longitud":30.4119546},
{"id":961,"fecha":"2017-07-13","importe":13.04,"latitud":26.486589,"longitud":111.909579},
{"id":962,"fecha":"2017-06-25","importe":94.2,"latitud":57.6809089,"longitud":12.0018674},
{"id":963,"fecha":"2017-10-01","importe":32.26,"latitud":-15.6627675,"longitud":-71.6992231},
{"id":964,"fecha":"2017-01-25","importe":3.92,"latitud":45.3081724,"longitud":33.0351476},
{"id":965,"fecha":"2017-12-24","importe":22.85,"latitud":32.060255,"longitud":118.796877},
{"id":966,"fecha":"2017-03-29","importe":67.21,"latitud":15.6927248,"longitud":119.9351455},
{"id":967,"fecha":"2017-02-06","importe":90.02,"latitud":"31.77078","longitud":"35.26916"},
{"id":968,"fecha":"2017-08-11","importe":15.4,"latitud":36.09,"longitud":-79.83},
{"id":969,"fecha":"2017-05-19","importe":63.87,"latitud":25.8517475,"longitud":43.5222313},
{"id":970,"fecha":"2017-12-06","importe":50.27,"latitud":-6.745694,"longitud":111.0438053},
{"id":971,"fecha":"2017-07-12","importe":43.95,"latitud":26.731743,"longitud":115.622147},
{"id":972,"fecha":"2017-09-30","importe":68.78,"latitud":56.2674828,"longitud":54.9252541},
{"id":973,"fecha":"2017-01-22","importe":49.89,"latitud":47.5054315,"longitud":6.8426821},
{"id":974,"fecha":"2017-07-05","importe":26.25,"latitud":36.973912,"longitud":121.793839},
{"id":975,"fecha":"2017-10-09","importe":3.52,"latitud":"49.18332","longitud":"-99.66364"},
{"id":976,"fecha":"2017-03-20","importe":70.16,"latitud":31.1853497,"longitud":35.7047733},
{"id":977,"fecha":"2017-05-22","importe":60.55,"latitud":14.1967923,"longitud":121.4019727},
{"id":978,"fecha":"2017-11-07","importe":3.3,"latitud":13.7091486,"longitud":123.7435653},
{"id":979,"fecha":"2017-10-04","importe":3.3,"latitud":44.6711569,"longitud":20.5029521},
{"id":980,"fecha":"2017-10-02","importe":31.54,"latitud":-19.0152673,"longitud":-57.6594997},
{"id":981,"fecha":"2017-11-21","importe":42.63,"latitud":48.8096645,"longitud":9.2415192},
{"id":982,"fecha":"2017-07-03","importe":30.49,"latitud":49.4129509,"longitud":75.4772753},
{"id":983,"fecha":"2017-03-12","importe":97.89,"latitud":"41.30278","longitud":"20.83028"},
{"id":984,"fecha":"2017-02-01","importe":20.51,"latitud":59.9278844,"longitud":10.7477822},
{"id":985,"fecha":"2017-07-20","importe":66.72,"latitud":-4.8531154,"longitud":21.5587544},
{"id":986,"fecha":"2017-07-09","importe":91.92,"latitud":38.6816201,"longitud":-9.1534942},
{"id":987,"fecha":"2017-09-10","importe":5.73,"latitud":45.05426,"longitud":41.1051314},
{"id":988,"fecha":"2017-03-19","importe":95.9,"latitud":37.3933984,"longitud":24.4173321},
{"id":989,"fecha":"2017-04-29","importe":28.78,"latitud":57.7500731,"longitud":12.9485476},
{"id":990,"fecha":"2017-05-01","importe":22.63,"latitud":54.8603009,"longitud":52.4223979},
{"id":991,"fecha":"2017-12-20","importe":90.48,"latitud":-3.4206623,"longitud":104.9856176},
{"id":992,"fecha":"2017-06-14","importe":85.28,"latitud":34.639007,"longitud":104.450091},
{"id":993,"fecha":"2017-07-30","importe":28.45,"latitud":26.097158,"longitud":115.308246},
{"id":994,"fecha":"2017-08-18","importe":30.49,"latitud":51.5024848,"longitud":16.0620494},
{"id":995,"fecha":"2017-06-08","importe":94.35,"latitud":-6.8646647,"longitud":107.5889804},
{"id":996,"fecha":"2017-03-06","importe":40.47,"latitud":-6.427987,"longitud":110.9561},
{"id":997,"fecha":"2017-11-16","importe":66.82,"latitud":38.627216,"longitud":-9.1035863},
{"id":998,"fecha":"2017-04-02","importe":47.67,"latitud":55.8876933,"longitud":48.3613188},
{"id":999,"fecha":"2017-03-01","importe":33.27,"latitud":14.6031411,"longitud":121.0959448},
{"id":1000,"fecha":"2017-03-26","importe":34.11,"latitud":57.903389,"longitud":53.715125}]